%!PS-Adobe-2.0 EPSF-2.0
%%BoundingBox:  0 0 567 200
%%Title: figs/can_v2_centdep_pta7_ptb10_case2_.eps: can_v2_centdep_pta7_ptb10_case2
%%Creator: ROOT Version 6.16/00
%%CreationDate: Sun Sep 29 19:38:29 2019
%%DocumentNeededResources: ProcSet (FontSetInit)
%%EndComments
%%BeginProlog
80 dict begin
/s {stroke} def /l {lineto} def /m {moveto} def /t {translate} def
/r {rotate} def /rl {roll}  def /R {repeat} def
/d {rlineto} def /rm {rmoveto} def /gr {grestore} def /f {eofill} def
/c {setrgbcolor} def /black {0 setgray} def /sd {setdash} def
/cl {closepath} def /sf {scalefont setfont} def /lw {setlinewidth} def
/box {m dup 0 exch d exch 0 d 0 exch neg d cl} def
/NC{systemdict begin initclip end}def/C{NC box clip newpath}def
/bl {box s} def /bf {gsave box gsave f grestore 1 lw [] 0 sd s grestore} def /Y { 0 exch d} def /X { 0 d} def 
/K {{pop pop 0 moveto} exch kshow} bind def
/ita {/ang 15 def gsave [1 0 ang dup sin exch cos div 1 0 0] concat} def 
/mp {newpath /y exch def /x exch def} def
/side {[w .77 mul w .23 mul] .385 w mul sd w 0 l currentpoint t -144 r} def
/mr {mp x y w2 0 360 arc} def /m24 {mr s} def /m20 {mr f} def
/mb {mp x y w2 add m w2 neg 0 d 0 w neg d w 0 d 0 w d cl} def
/mt {mp x y w2 add m w2 neg w neg d w 0 d cl} def
/w4 {w 4 div} def
/w6 {w 6 div} def
/w8 {w 8 div} def
/m21 {mb f} def /m25 {mb s} def /m22 {mt f} def /m26{mt s} def
/m23 {mp x y w2 sub m w2 w d w neg 0 d cl f} def
/m27 {mp x y w2 add m w3 neg w2 neg d w3 w2 neg d w3 w2 d cl s} def
/m28 {mp x w2 sub y w2 sub w3 add m w3 0 d  0 w3 neg d w3 0 d 0 w3 d w3 0 d  0 w3 d w3 neg 0 d 0 w3 d w3 neg 0 d 0 w3 neg d w3 neg 0 d cl s } def
/m29 {mp gsave x w2 sub y w2 add w3 sub m currentpoint t 4 {side} repeat cl fill gr} def
/m30 {mp gsave x w2 sub y w2 add w3 sub m currentpoint t 4 {side} repeat cl s gr} def
/m31 {mp x y w2 sub m 0 w d x w2 sub y m w 0 d x w2 sub y w2 add m w w neg d x w2 sub y w2 sub m w w d s} def
/m32 {mp x y w2 sub m w2 w d w neg 0 d cl s} def
/m33 {mp x y w2 add m w3 neg w2 neg d w3 w2 neg d w3 w2 d cl f} def
/m34 {mp x w2 sub y w2 sub w3 add m w3 0 d  0 w3 neg d w3 0 d 0 w3 d w3 0 d  0 w3 d w3 neg 0 d 0 w3 d w3 neg 0 d 0 w3 neg d w3 neg 0 d cl f } def
/m35 {mp x y w2 add m w2 neg w2 neg d w2 w2 neg d w2 w2 d w2 neg w2 d x y w2 sub m 0 w d x w2 sub y m w 0 d s} def
/m36 {mb x w2 sub y w2 add m w w neg d x w2 sub y w2 sub m w w d s} def
/m37 {mp x y m w4 neg w2 d w4 neg w2 neg d w2 0 d  w4 neg w2 neg d w2 0 d w4 neg w2 d w2 0 d w4 neg w2 d w4 neg w2 neg d cl s} def
/m38 {mp x w4 sub y w2 add m w4 neg w4 neg d 0 w2 neg d w4 w4 neg d w2 0 d w4 w4 d 0 w2 d w4 neg w4 d w2 neg 0 d x y w2 sub m 0 w d x w2 sub y m w 0 d cl s} def
/m39 {mp x y m w4 neg w2 d w4 neg w2 neg d w2 0 d  w4 neg w2 neg d w2 0 d w4 neg w2 d w2 0 d w4 neg w2 d w4 neg w2 neg d cl f} def
/m40 {mp x y m w4 w2 d w4 w4 neg d w2 neg w4 neg d w2 w4 neg d w4 neg w4 neg d w4 neg w2 d w4 neg w2 neg d w4 neg w4 d w2 w4 d w2 neg w4 d w4 w4 d w4 w2 neg d cl s} def
/m41 {mp x y m w4 w2 d w4 w4 neg d w2 neg w4 neg d w2 w4 neg d w4 neg w4 neg d w4 neg w2 d w4 neg w2 neg d w4 neg w4 d w2 w4 d w2 neg w4 d w4 w4 d w4 w2 neg d cl f} def
/m42 {mp x y w2 add m w8 neg w2 -3 4 div mul d w2 -3 4 div mul w8 neg d w2 3 4 div mul w8 neg d w8 w2 -3 4 div mul d w8 w2 3 4 div mul d w2 3 4 div mul w8 d w2 -3 4 div mul w8 d w8 neg w2 3 4 div mul d cl s} def
/m43 {mp x y w2 add m w8 neg w2 -3 4 div mul d w2 -3 4 div mul w8 neg d w2 3 4 div mul w8 neg d w8 w2 -3 4 div mul d w8 w2 3 4 div mul d w2 3 4 div mul w8 d w2 -3 4 div mul w8 d w8 neg w2 3 4 div mul d cl f} def
/m44 {mp x y m w6 neg w2 d w2 2 3 div mul 0 d w6 neg w2 neg d w2 w6 d 0 w2 -2 3 div mul d w2 neg w6 d w6 w2 neg d w2 -2 3 div mul 0 d w6 w2 d w2 neg w6 neg d 0 w2 2 3 div mul d w2 w6 neg d cl s} def
/m45 {mp x y m w6 neg w2 d w2 2 3 div mul 0 d w6 neg w2 neg d w2 w6 d 0 w2 -2 3 div mul d w2 neg w6 d w6 w2 neg d w2 -2 3 div mul 0 d w6 w2 d w2 neg w6 neg d 0 w2 2 3 div mul d w2 w6 neg d cl f} def
/m46 {mp x y w4 add m w4 neg w4 d w4 neg w4 neg d  w4 w4 neg d w4 neg w4 neg d w4 w4 neg d w4 w4 d w4 w4 neg d w4 w4 d w4 neg w4 d w4 w4 d w4 neg w4 d w4 neg w4 neg d cl s} def
/m47 {mp x y w4 add m w4 neg w4 d w4 neg w4 neg d w4 w4 neg d w4 neg w4 neg d  w4 w4 neg d w4 w4 d w4 w4 neg d w4 w4 d w4 neg w4 d w4 w4 d w4 neg w4 d w4 neg w4 neg d cl f} def
/m48 {mp x y w4 add m w4 neg w4 d w4 neg w4 neg d w4 w4 neg d  w4 neg w4 neg d w4 w4 neg d w4 w4 d w4 w4 neg d w4 w4 d w4 neg w4 d w4 w4 d w4 neg w4 d w4 neg w4 neg d  w4 w4 neg d w4 neg w4 neg d w4 neg w4 d w4 w4 d cl f} def
/m49 {mp x w2 sub w3 add y w2 sub w3 add m  0 w3 neg d w3 0 d 0 w3 d w3 0 d 0 w3 d w3 neg 0 d 0 w3 d w3 neg 0 d 0 w3 neg d w3 neg 0 d 0 w3 neg d w3 0 d 0 w3 d w3 0 d 0 w3 neg d w3 neg 0 d cl f } def
/m2 {mp x y w2 sub m 0 w d x w2 sub y m w 0 d s} def
/m5 {mp x w2 sub y w2 sub m w w d x w2 sub y w2 add m w w neg d s} def
%%IncludeResource: ProcSet (FontSetInit)
%%IncludeResource: font Times-Roman
%%IncludeResource: font Times-Italic
%%IncludeResource: font Times-Bold
%%IncludeResource: font Times-BoldItalic
%%IncludeResource: font Helvetica
%%IncludeResource: font Helvetica-Oblique
%%IncludeResource: font Helvetica-Bold
%%IncludeResource: font Helvetica-BoldOblique
%%IncludeResource: font Courier
%%IncludeResource: font Courier-Oblique
%%IncludeResource: font Courier-Bold
%%IncludeResource: font Courier-BoldOblique
%%IncludeResource: font Symbol
%%IncludeResource: font ZapfDingbats
/reEncode {exch findfont dup length dict begin {1 index /FID eq  {pop pop} {def} ifelse } forall /Encoding exch def currentdict end dup /FontName get exch definefont pop } def [/Times-Bold /Times-Italic /Times-BoldItalic /Helvetica /Helvetica-Oblique
 /Helvetica-Bold /Helvetica-BoldOblique /Courier /Courier-Oblique /Courier-Bold /Courier-BoldOblique /Times-Roman /AvantGarde-Book /AvantGarde-BookOblique /AvantGarde-Demi /AvantGarde-DemiOblique /Bookman-Demi /Bookman-DemiItalic /Bookman-Light
 /Bookman-LightItalic /Helvetica-Narrow /Helvetica-Narrow-Bold /Helvetica-Narrow-BoldOblique /Helvetica-Narrow-Oblique /NewCenturySchlbk-Roman /NewCenturySchlbk-Bold /NewCenturySchlbk-BoldItalic /NewCenturySchlbk-Italic /Palatino-Bold
 /Palatino-BoldItalic /Palatino-Italic /Palatino-Roman ] {ISOLatin1Encoding reEncode } forall
%%EndProlog
%%BeginSetup
%%EndSetup
newpath  gsave  .25 .25 scale  gsave  0 0 t black[  ] 0 sd 3 lw 1 1 1 c 2268 800 0 0 bf black 1 1 1 c 1088 784 23 8 bf black 1 1 1 c 904 620 153 133 bf black 904 620 153 133 bl 6 lw 1 1 1 c black 3 lw /w 18 def /w2 {w 2 div} def /w3 {w 3 div} def 182
 271 m20 6 lw 3 lw 238 320 m20 6 lw 3 lw 323 381 m20 6 lw 3 lw 436 444 m20 6 lw 3 lw 549 482 m20 6 lw 3 lw 661 498 m20 6 lw 3 lw 774 489 m20 6 lw 3 lw 887 462 m20 6 lw 3 lw 1000 422 m20 6 lw 3 lw 153 133 m 904 X s 153 153 m -20 Y s 210 143 m -10 Y s
 266 143 m -10 Y s 323 143 m -10 Y s 379 153 m -20 Y s 436 143 m -10 Y s 492 143 m -10 Y s 549 143 m -10 Y s 605 153 m -20 Y s 661 143 m -10 Y s 718 143 m -10 Y s 774 143 m -10 Y s 831 153 m -20 Y s 887 143 m -10 Y s 944 143 m -10 Y s 1000 143 m -10
 Y s 1057 153 m -20 Y s
 gsave  1088 784 23 8 C 142.206 98.5964 t 0 r /Helvetica findfont 36.0744 sf 0 0 m (0) show NC gr 
 gsave  1088 784 23 8 C 356.464 98.5964 t 0 r /Helvetica findfont 36.0744 sf 0 0 m (20) show NC gr 
 gsave  1088 784 23 8 C 583.994 98.5964 t 0 r /Helvetica findfont 36.0744 sf 0 0 m (40) show NC gr 
 gsave  1088 784 23 8 C 809.628 98.5964 t 0 r /Helvetica findfont 36.0744 sf 0 0 m (60) show NC gr 
 gsave  1088 784 23 8 C 1035.26 98.5964 t 0 r /Helvetica findfont 36.0744 sf 0 0 m (80) show NC gr 
 gsave  1088 784 23 8 C 843.757 45.506 t 0 r /Helvetica findfont 36.0744 sf 0 0 m (Centrality [%]) show NC gr  153 753 m 904 X s 153 733 m 20 Y s 210 743 m 10 Y s 266 743 m 10 Y s 323 743 m 10 Y s 379 733 m 20 Y s 436 743 m 10 Y s 492 743 m 10 Y s
 549 743 m 10 Y s 605 733 m 20 Y s 661 743 m 10 Y s 718 743 m 10 Y s 774 743 m 10 Y s 831 733 m 20 Y s 887 743 m 10 Y s 944 743 m 10 Y s 1000 743 m 10 Y s 1057 733 m 20 Y s 153 133 m 620 Y s 179 133 m -26 X s 166 171 m -13 X s 166 209 m -13 X s 166
 247 m -13 X s 166 285 m -13 X s 179 323 m -26 X s 166 361 m -13 X s 166 399 m -13 X s 166 437 m -13 X s 166 475 m -13 X s 179 513 m -26 X s 166 551 m -13 X s 166 589 m -13 X s 166 627 m -13 X s 166 665 m -13 X s 179 703 m -26 X s 179 703 m -26 X s
 166 741 m -13 X s
 gsave  1088 784 23 8 C 127.038 121.349 t 0 r /Helvetica findfont 36.0744 sf 0 0 m (0) show NC gr 
 gsave  1088 784 23 8 C 102.389 310.958 t 0 r /Helvetica findfont 36.0744 sf 0 0 m (0.1) show NC gr 
 gsave  1088 784 23 8 C 96.7003 500.566 t 0 r /Helvetica findfont 36.0744 sf 0 0 m (0.2) show NC gr 
 gsave  1088 784 23 8 C 96.7003 690.175 t 0 r /Helvetica findfont 36.0744 sf 0 0 m (0.3) show NC gr 
 gsave  1088 784 23 8 C 53.0904 661.733 t 90 r /Helvetica findfont 36.0744 sf 0 0 m ({2PC}) show NC gr 
 gsave  1088 784 23 8 C 64.4669 648.461 t 90 r /Helvetica findfont 24.6825 sf 0 0 m (2) show NC gr 
 gsave  1088 784 23 8 C 53.0904 625.708 t 90 r /Helvetica-Oblique findfont 36.0744 sf 0 0 m (v) show NC gr  1057 133 m 620 Y s 1031 133 m 26 X s 1044 171 m 13 X s 1044 209 m 13 X s 1044 247 m 13 X s 1044 285 m 13 X s 1031 323 m 26 X s 1044 361 m 13 X
 s 1044 399 m 13 X s 1044 437 m 13 X s 1044 475 m 13 X s 1031 513 m 26 X s 1044 551 m 13 X s 1044 589 m 13 X s 1044 627 m 13 X s 1044 665 m 13 X s 1031 703 m 26 X s 1031 703 m 26 X s 1044 741 m 13 X s /w 15 def /w2 {w 2 div} def /w3 {w 3 div} def 229
 604 m20
 gsave  1088 784 23 8 C 250.283 589.682 t 0 r /Helvetica findfont 36.0744 sf 0 0 m (2mm) show NC gr  1 0 0 c 6 lw 1 1 1 c 1 0 0 c 3 lw /w 18 def /w2 {w 2 div} def /w3 {w 3 div} def 182 272 m24 6 lw 3 lw 238 320 m24 6 lw 3 lw 323 381 m24 6 lw 3 lw 436
 444 m24 6 lw 3 lw 549 482 m24 6 lw 3 lw 661 498 m24 6 lw 3 lw 774 489 m24 6 lw 3 lw 887 464 m24 6 lw 3 lw 1000 432 m24 6 lw 3 lw /w 15 def /w2 {w 2 div} def /w3 {w 3 div} def 229 549 m24 6 lw black
 gsave  1088 784 23 8 C 250.283 534.696 t 0 r /Helvetica findfont 36.0744 sf 0 0 m (4mm) show NC gr  0 0 1 c 1 1 1 c 0 0 1 c 3 lw /w 18 def /w2 {w 2 div} def /w3 {w 3 div} def 182 272 m21 6 lw 3 lw 238 320 m21 6 lw 3 lw 323 381 m21 6 lw 3 lw 436 445
 m21 6 lw 3 lw 549 482 m21 6 lw 3 lw 661 498 m21 6 lw 3 lw 774 489 m21 6 lw 3 lw 887 463 m21 6 lw 3 lw 1000 434 m21 6 lw 3 lw /w 15 def /w2 {w 2 div} def /w3 {w 3 div} def 404 604 m21 6 lw black
 gsave  1088 784 23 8 C 424.723 591.578 t 0 r /Helvetica findfont 36.0744 sf 0 0 m (10mm) show NC gr  1 0 1 c 1 1 1 c 1 0 1 c 3 lw /w 18 def /w2 {w 2 div} def /w3 {w 3 div} def 182 272 m25 6 lw 3 lw 238 319 m25 6 lw 3 lw 323 381 m25 6 lw 3 lw 436 444
 m25 6 lw 3 lw 549 482 m25 6 lw 3 lw 661 497 m25 6 lw 3 lw 774 487 m25 6 lw 3 lw 887 462 m25 6 lw 3 lw 1000 428 m25 6 lw 3 lw /w 15 def /w2 {w 2 div} def /w3 {w 3 div} def 404 549 m25 6 lw black
 gsave  1088 784 23 8 C 424.723 536.592 t 0 r /Helvetica findfont 36.0744 sf 0 0 m (200mm) show NC gr 
 gsave  1088 784 23 8 C 218.05 699.655 t 0 r /Helvetica-BoldOblique findfont 36.0744 sf 0 0 m (ATLAS) show NC gr 
 gsave  1088 784 23 8 C 348.879 699.655 t 0 r /Helvetica findfont 36.0744 sf 0 0 m (Internal) show NC gr 
 gsave  1088 784 23 8 C 667.422 665.526 t 0 r /Helvetica findfont 22.7839 sf 0 0 m (\2551) show NC gr 
 gsave  1088 784 23 8 C 646.565 648.461 t 0 r /Helvetica findfont 36.0744 sf 0 0 m (b) show NC gr 
 gsave  1088 784 23 8 C 625.708 648.461 t 0 r /Symbol findfont 36.0744 sf 0 0 m (m) show NC gr 
 gsave  1088 784 23 8 C 407.658 648.461 t 0 r /Helvetica findfont 36.0744 sf 0 0 m (=5.44 TeV, 3 ) show NC gr 
 gsave  1088 784 23 8 C 375.425 637.084 t 0 r /Helvetica findfont 22.7839 sf 0 0 m (NN) show NC gr 
 gsave  1088 784 23 8 C 356.464 648.461 t 0 r /Helvetica-Oblique findfont 36.0744 sf 0 0 m (s) show NC gr  341 669 m 6 -32 d s 3 lw 347 637 m 6 44 d s 353 681 m 55 X s
 gsave  1088 784 23 8 C 218.05 648.461 t 0 r /Helvetica findfont 36.0744 sf 0 0 m (Xe+Xe ) show NC gr 
 gsave  1088 784 23 8 C 690.175 614.331 t 0 r /Helvetica findfont 22.7839 sf 0 0 m (\2551) show NC gr 
 gsave  1088 784 23 8 C 669.318 597.266 t 0 r /Helvetica findfont 36.0744 sf 0 0 m (b) show NC gr 
 gsave  1088 784 23 8 C 648.461 597.266 t 0 r /Symbol findfont 36.0744 sf 0 0 m (m) show NC gr 
 gsave  1088 784 23 8 C 409.554 597.266 t 0 r /Helvetica findfont 36.0744 sf 0 0 m (=5.02 TeV, 22 ) show NC gr 
 gsave  1088 784 23 8 C 377.321 585.89 t 0 r /Helvetica findfont 22.7839 sf 0 0 m (NN) show NC gr 
 gsave  1088 784 23 8 C 358.36 597.266 t 0 r /Helvetica-Oblique findfont 36.0744 sf 0 0 m (s) show NC gr  6 lw 343 618 m 6 -32 d s 3 lw 349 586 m 6 43 d s 355 629 m 55 X s
 gsave  1088 784 23 8 C 218.05 597.266 t 0 r /Helvetica findfont 36.0744 sf 0 0 m (Pb+Pb ) show NC gr 
 gsave  1088 784 23 8 C 309.062 546.072 t 0 r /Helvetica findfont 36.0744 sf 0 0 m (|<5) show NC gr 
 gsave  1088 784 23 8 C 288.205 546.072 t 0 r /Symbol findfont 36.0744 sf 0 0 m (h) show NC gr 
 gsave  1088 784 23 8 C 265.452 546.072 t 0 r /Symbol findfont 36.0744 sf 0 0 m (D) show NC gr 
 gsave  1088 784 23 8 C 218.05 546.072 t 0 r /Helvetica findfont 36.0744 sf 0 0 m (2<|) show NC gr 
 gsave  1088 784 23 8 C 819.108 546.072 t 0 r /Helvetica findfont 36.0744 sf 0 0 m (\(GeV\)<2) show NC gr 
 gsave  1088 784 23 8 C 803.94 561.241 t 0 r /Helvetica-Oblique findfont 22.7839 sf 0 0 m (b) show NC gr 
 gsave  1088 784 23 8 C 803.94 527.111 t 0 r /Helvetica findfont 22.7839 sf 0 0 m (T) show NC gr 
 gsave  1088 784 23 8 C 781.187 546.072 t 0 r /Helvetica-Oblique findfont 36.0744 sf 0 0 m (p) show NC gr 
 gsave  1088 784 23 8 C 544.176 546.072 t 0 r /Helvetica findfont 36.0744 sf 0 0 m (\(GeV\)<5,  1.8<) show NC gr 
 gsave  1088 784 23 8 C 529.007 561.241 t 0 r /Helvetica-Oblique findfont 22.7839 sf 0 0 m (a) show NC gr 
 gsave  1088 784 23 8 C 529.007 527.111 t 0 r /Helvetica findfont 22.7839 sf 0 0 m (T) show NC gr 
 gsave  1088 784 23 8 C 506.254 546.072 t 0 r /Helvetica-Oblique findfont 36.0744 sf 0 0 m (p) show NC gr 
 gsave  1088 784 23 8 C 436.099 546.072 t 0 r /Helvetica findfont 36.0744 sf 0 0 m (0.5<) show NC gr  1 1 1 c 1088 784 1157 8 bf black 1 1 1 c 904 620 1287 133 bf black 904 620 1287 133 bl 1 0 0 c 6 lw 1 1 1 c 1 0 0 c 3 lw /w 18 def /w2 {w 2 div} def
 /w3 {w 3 div} def 1315 450 m24 6 lw 3 lw 1372 460 m24 6 lw 3 lw 1457 445 m24 6 lw 3 lw 1569 445 m24 6 lw 3 lw 1682 440 m24 6 lw 3 lw 1795 449 m24 6 lw 3 lw 1908 449 m24 6 lw 3 lw 2021 459 m24 6 lw 3 lw 2134 581 m24 6 lw black 3 lw 1287 133 m 904 X s
 1287 153 m -20 Y s 1344 143 m -10 Y s 1400 143 m -10 Y s 1457 143 m -10 Y s 1513 153 m -20 Y s 1569 143 m -10 Y s 1626 143 m -10 Y s 1682 143 m -10 Y s 1739 153 m -20 Y s 1795 143 m -10 Y s 1852 143 m -10 Y s 1908 143 m -10 Y s 1965 153 m -20 Y s
 2021 143 m -10 Y s 2078 143 m -10 Y s 2134 143 m -10 Y s 2191 153 m -20 Y s
 gsave  1088 784 1157 8 C 1276.06 98.5964 t 0 r /Helvetica findfont 36.0744 sf 0 0 m (0) show NC gr 
 gsave  1088 784 1157 8 C 1490.32 98.5964 t 0 r /Helvetica findfont 36.0744 sf 0 0 m (20) show NC gr 
 gsave  1088 784 1157 8 C 1717.85 98.5964 t 0 r /Helvetica findfont 36.0744 sf 0 0 m (40) show NC gr 
 gsave  1088 784 1157 8 C 1943.49 98.5964 t 0 r /Helvetica findfont 36.0744 sf 0 0 m (60) show NC gr 
 gsave  1088 784 1157 8 C 2169.12 98.5964 t 0 r /Helvetica findfont 36.0744 sf 0 0 m (80) show NC gr 
 gsave  1088 784 1157 8 C 1977.62 45.506 t 0 r /Helvetica findfont 36.0744 sf 0 0 m (Centrality [%]) show NC gr  1287 753 m 904 X s 1287 733 m 20 Y s 1344 743 m 10 Y s 1400 743 m 10 Y s 1457 743 m 10 Y s 1513 733 m 20 Y s 1569 743 m 10 Y s 1626 743 m
 10 Y s 1682 743 m 10 Y s 1739 733 m 20 Y s 1795 743 m 10 Y s 1852 743 m 10 Y s 1908 743 m 10 Y s 1965 733 m 20 Y s 2021 743 m 10 Y s 2078 743 m 10 Y s 2134 743 m 10 Y s 2191 733 m 20 Y s 1287 133 m 620 Y s 1313 250 m -26 X s 1300 288 m -13 X s 1300
 327 m -13 X s 1300 366 m -13 X s 1300 404 m -13 X s 1313 443 m -26 X s 1300 482 m -13 X s 1300 521 m -13 X s 1300 559 m -13 X s 1300 598 m -13 X s 1313 637 m -26 X s 1313 250 m -26 X s 1300 211 m -13 X s 1300 172 m -13 X s 1300 133 m -13 X s 1313
 637 m -26 X s 1300 676 m -13 X s 1300 714 m -13 X s 1300 753 m -13 X s
 gsave  1088 784 1157 8 C 1209.7 237.011 t 0 r /Helvetica findfont 36.0744 sf 0 0 m (0.95) show NC gr 
 gsave  1088 784 1157 8 C 1266.58 428.515 t 0 r /Helvetica findfont 36.0744 sf 0 0 m (1) show NC gr 
 gsave  1088 784 1157 8 C 1209.7 623.812 t 0 r /Helvetica findfont 36.0744 sf 0 0 m (1.05) show NC gr 
 gsave  1088 784 1157 8 C 1186.95 675.006 t 90 r /Helvetica findfont 36.0744 sf 0 0 m ( ratio) show NC gr 
 gsave  1088 784 1157 8 C 1186.95 582.098 t 90 r /Helvetica findfont 36.0744 sf 0 0 m ({2PC}) show NC gr 
 gsave  1088 784 1157 8 C 1198.33 568.825 t 90 r /Helvetica findfont 24.6825 sf 0 0 m (2) show NC gr 
 gsave  1088 784 1157 8 C 1186.95 546.072 t 90 r /Helvetica-Oblique findfont 36.0744 sf 0 0 m (v) show NC gr  2191 133 m 620 Y s 2165 250 m 26 X s 2178 288 m 13 X s 2178 327 m 13 X s 2178 366 m 13 X s 2178 404 m 13 X s 2165 443 m 26 X s 2178 482 m 13
 X s 2178 521 m 13 X s 2178 559 m 13 X s 2178 598 m 13 X s 2165 637 m 26 X s 2165 250 m 26 X s 2178 211 m 13 X s 2178 172 m 13 X s 2178 133 m 13 X s 2165 637 m 26 X s 2178 676 m 13 X s 2178 714 m 13 X s 2178 753 m 13 X s 0 0 1 c 6 lw 1 1 1 c 0 0 1 c
 1315 440 m 6 Y s 1315 461 m 6 Y s 3 lw 1315 454 m21 6 lw 1372 437 m 1 Y s 1372 453 m 2 Y s 3 lw 1372 446 m21 6 lw 3 lw 1457 437 m21 6 lw 3 lw 1569 446 m21 6 lw 3 lw 1682 443 m21 6 lw 1795 437 m s 1795 452 m s 3 lw 1795 444 m21 6 lw 1908 431 m 6 Y s
 1908 452 m 6 Y s 3 lw 1908 444 m21 6 lw 2021 421 m 23 Y s 2021 459 m 22 Y s 3 lw 2021 451 m21 6 lw 2134 530 m 76 Y s 2134 621 m 75 Y s 3 lw 2134 613 m21 6 lw 1 0 1 c 1 1 1 c 1 0 1 c 1315 431 m 6 Y s 1315 452 m 6 Y s 3 lw 1315 445 m25 6 lw 1372 426 m
 1 Y s 1372 442 m 2 Y s 3 lw 1372 435 m25 6 lw 3 lw 1457 447 m25 6 lw 3 lw 1569 437 m25 6 lw 3 lw 1682 448 m25 6 lw 3 lw 1795 430 m25 6 lw 1908 409 m 6 Y s 1908 430 m 6 Y s 3 lw 1908 422 m25 6 lw 2021 405 m 22 Y s 2021 443 m 22 Y s 3 lw 2021 435 m25
 6 lw 2134 453 m 75 Y s 2134 543 m 74 Y s 3 lw 2134 535 m25 6 lw 1 0 0 c[  12 12 ] 0 sd 1 1 1 c black 1 0 0 c 1287 482 m 904 X s 1 1 1 c black 1 0 0 c 1287 404 m 904 X s black
 gsave  1088 784 1157 8 C 1351.91 699.655 t 0 r /Helvetica-BoldOblique findfont 36.0744 sf 0 0 m (ATLAS) show NC gr 
 gsave  1088 784 1157 8 C 1482.74 699.655 t 0 r /Helvetica findfont 36.0744 sf 0 0 m (Internal) show NC gr 
 gsave  1088 784 1157 8 C 1801.28 665.526 t 0 r /Helvetica findfont 22.7839 sf 0 0 m (\2551) show NC gr 
 gsave  1088 784 1157 8 C 1780.42 648.461 t 0 r /Helvetica findfont 36.0744 sf 0 0 m (b) show NC gr 
 gsave  1088 784 1157 8 C 1759.57 648.461 t 0 r /Symbol findfont 36.0744 sf 0 0 m (m) show NC gr 
 gsave  1088 784 1157 8 C 1541.52 648.461 t 0 r /Helvetica findfont 36.0744 sf 0 0 m (=5.44 TeV, 3 ) show NC gr 
 gsave  1088 784 1157 8 C 1509.28 637.084 t 0 r /Helvetica findfont 22.7839 sf 0 0 m (NN) show NC gr 
 gsave  1088 784 1157 8 C 1490.32 648.461 t 0 r /Helvetica-Oblique findfont 36.0744 sf 0 0 m (s) show NC gr [  ] 0 sd 1475 669 m 6 -32 d s 3 lw 1481 637 m 6 44 d s 1487 681 m 55 X s
 gsave  1088 784 1157 8 C 1351.91 648.461 t 0 r /Helvetica findfont 36.0744 sf 0 0 m (Xe+Xe ) show NC gr 
 gsave  1088 784 1157 8 C 1824.03 614.331 t 0 r /Helvetica findfont 22.7839 sf 0 0 m (\2551) show NC gr 
 gsave  1088 784 1157 8 C 1803.18 597.266 t 0 r /Helvetica findfont 36.0744 sf 0 0 m (b) show NC gr 
 gsave  1088 784 1157 8 C 1782.32 597.266 t 0 r /Symbol findfont 36.0744 sf 0 0 m (m) show NC gr 
 gsave  1088 784 1157 8 C 1543.41 597.266 t 0 r /Helvetica findfont 36.0744 sf 0 0 m (=5.02 TeV, 22 ) show NC gr 
 gsave  1088 784 1157 8 C 1511.18 585.89 t 0 r /Helvetica findfont 22.7839 sf 0 0 m (NN) show NC gr 
 gsave  1088 784 1157 8 C 1492.22 597.266 t 0 r /Helvetica-Oblique findfont 36.0744 sf 0 0 m (s) show NC gr  6 lw 1477 618 m 6 -32 d s 3 lw 1483 586 m 5 43 d s 1488 629 m 55 X s
 gsave  1088 784 1157 8 C 1351.91 597.266 t 0 r /Helvetica findfont 36.0744 sf 0 0 m (Pb+Pb ) show NC gr 
 gsave  1088 784 1157 8 C 1442.92 546.072 t 0 r /Helvetica findfont 36.0744 sf 0 0 m (|<5) show NC gr 
 gsave  1088 784 1157 8 C 1422.06 546.072 t 0 r /Symbol findfont 36.0744 sf 0 0 m (h) show NC gr 
 gsave  1088 784 1157 8 C 1399.31 546.072 t 0 r /Symbol findfont 36.0744 sf 0 0 m (D) show NC gr 
 gsave  1088 784 1157 8 C 1351.91 546.072 t 0 r /Helvetica findfont 36.0744 sf 0 0 m (2<|) show NC gr 
 gsave  1088 784 1157 8 C 1952.97 546.072 t 0 r /Helvetica findfont 36.0744 sf 0 0 m (\(GeV\)<2) show NC gr 
 gsave  1088 784 1157 8 C 1937.8 561.241 t 0 r /Helvetica-Oblique findfont 22.7839 sf 0 0 m (b) show NC gr 
 gsave  1088 784 1157 8 C 1937.8 527.111 t 0 r /Helvetica findfont 22.7839 sf 0 0 m (T) show NC gr 
 gsave  1088 784 1157 8 C 1915.04 546.072 t 0 r /Helvetica-Oblique findfont 36.0744 sf 0 0 m (p) show NC gr 
 gsave  1088 784 1157 8 C 1678.03 546.072 t 0 r /Helvetica findfont 36.0744 sf 0 0 m (\(GeV\)<5,  1.8<) show NC gr 
 gsave  1088 784 1157 8 C 1662.87 561.241 t 0 r /Helvetica-Oblique findfont 22.7839 sf 0 0 m (a) show NC gr 
 gsave  1088 784 1157 8 C 1662.87 527.111 t 0 r /Helvetica findfont 22.7839 sf 0 0 m (T) show NC gr 
 gsave  1088 784 1157 8 C 1640.11 546.072 t 0 r /Helvetica-Oblique findfont 36.0744 sf 0 0 m (p) show NC gr 
 gsave  1088 784 1157 8 C 1569.96 546.072 t 0 r /Helvetica findfont 36.0744 sf 0 0 m (0.5<) show NC gr 
 gr  gr showpage
end
%%EOF
