%!PS-Adobe-2.0 EPSF-2.0
%%BoundingBox:  0 0 567 399
%%Title: figs/Can_TrkEff_pTDep_Data_LowMu.eps: Can_TrkEff_pTDep_Data_LowMu
%%Creator: ROOT Version 6.14/04
%%CreationDate: Thu May 14 21:01:36 2020
%%DocumentNeededResources: ProcSet (FontSetInit)
%%EndComments
%%BeginProlog
80 dict begin
/s {stroke} def /l {lineto} def /m {moveto} def /t {translate} def
/r {rotate} def /rl {roll}  def /R {repeat} def
/d {rlineto} def /rm {rmoveto} def /gr {grestore} def /f {eofill} def
/c {setrgbcolor} def /black {0 setgray} def /sd {setdash} def
/cl {closepath} def /sf {scalefont setfont} def /lw {setlinewidth} def
/box {m dup 0 exch d exch 0 d 0 exch neg d cl} def
/NC{systemdict begin initclip end}def/C{NC box clip newpath}def
/bl {box s} def /bf {gsave box gsave f grestore 1 lw [] 0 sd s grestore} def /Y { 0 exch d} def /X { 0 d} def 
/K {{pop pop 0 moveto} exch kshow} bind def
/ita {/ang 15 def gsave [1 0 ang dup sin exch cos div 1 0 0] concat} def 
/mp {newpath /y exch def /x exch def} def
/side {[w .77 mul w .23 mul] .385 w mul sd w 0 l currentpoint t -144 r} def
/mr {mp x y w2 0 360 arc} def /m24 {mr s} def /m20 {mr f} def
/mb {mp x y w2 add m w2 neg 0 d 0 w neg d w 0 d 0 w d cl} def
/mt {mp x y w2 add m w2 neg w neg d w 0 d cl} def
/w4 {w 4 div} def
/w6 {w 6 div} def
/w8 {w 8 div} def
/m21 {mb f} def /m25 {mb s} def /m22 {mt f} def /m26{mt s} def
/m23 {mp x y w2 sub m w2 w d w neg 0 d cl f} def
/m27 {mp x y w2 add m w3 neg w2 neg d w3 w2 neg d w3 w2 d cl s} def
/m28 {mp x w2 sub y w2 sub w3 add m w3 0 d  0 w3 neg d w3 0 d 0 w3 d w3 0 d  0 w3 d w3 neg 0 d 0 w3 d w3 neg 0 d 0 w3 neg d w3 neg 0 d cl s } def
/m29 {mp gsave x w2 sub y w2 add w3 sub m currentpoint t 4 {side} repeat cl fill gr} def
/m30 {mp gsave x w2 sub y w2 add w3 sub m currentpoint t 4 {side} repeat cl s gr} def
/m31 {mp x y w2 sub m 0 w d x w2 sub y m w 0 d x w2 sub y w2 add m w w neg d x w2 sub y w2 sub m w w d s} def
/m32 {mp x y w2 sub m w2 w d w neg 0 d cl s} def
/m33 {mp x y w2 add m w3 neg w2 neg d w3 w2 neg d w3 w2 d cl f} def
/m34 {mp x w2 sub y w2 sub w3 add m w3 0 d  0 w3 neg d w3 0 d 0 w3 d w3 0 d  0 w3 d w3 neg 0 d 0 w3 d w3 neg 0 d 0 w3 neg d w3 neg 0 d cl f } def
/m35 {mp x y w2 add m w2 neg w2 neg d w2 w2 neg d w2 w2 d w2 neg w2 d x y w2 sub m 0 w d x w2 sub y m w 0 d s} def
/m36 {mb x w2 sub y w2 add m w w neg d x w2 sub y w2 sub m w w d s} def
/m37 {mp x y m w4 neg w2 d w4 neg w2 neg d w2 0 d  w4 neg w2 neg d w2 0 d w4 neg w2 d w2 0 d w4 neg w2 d w4 neg w2 neg d cl s} def
/m38 {mp x w4 sub y w2 add m w4 neg w4 neg d 0 w2 neg d w4 w4 neg d w2 0 d w4 w4 d 0 w2 d w4 neg w4 d w2 neg 0 d x y w2 sub m 0 w d x w2 sub y m w 0 d cl s} def
/m39 {mp x y m w4 neg w2 d w4 neg w2 neg d w2 0 d  w4 neg w2 neg d w2 0 d w4 neg w2 d w2 0 d w4 neg w2 d w4 neg w2 neg d cl f} def
/m40 {mp x y m w4 w2 d w4 w4 neg d w2 neg w4 neg d w2 w4 neg d w4 neg w4 neg d w4 neg w2 d w4 neg w2 neg d w4 neg w4 d w2 w4 d w2 neg w4 d w4 w4 d w4 w2 neg d cl s} def
/m41 {mp x y m w4 w2 d w4 w4 neg d w2 neg w4 neg d w2 w4 neg d w4 neg w4 neg d w4 neg w2 d w4 neg w2 neg d w4 neg w4 d w2 w4 d w2 neg w4 d w4 w4 d w4 w2 neg d cl f} def
/m42 {mp x y w2 add m w8 neg w2 -3 4 div mul d w2 -3 4 div mul w8 neg d w2 3 4 div mul w8 neg d w8 w2 -3 4 div mul d w8 w2 3 4 div mul d w2 3 4 div mul w8 d w2 -3 4 div mul w8 d w8 neg w2 3 4 div mul d cl s} def
/m43 {mp x y w2 add m w8 neg w2 -3 4 div mul d w2 -3 4 div mul w8 neg d w2 3 4 div mul w8 neg d w8 w2 -3 4 div mul d w8 w2 3 4 div mul d w2 3 4 div mul w8 d w2 -3 4 div mul w8 d w8 neg w2 3 4 div mul d cl f} def
/m44 {mp x y m w6 neg w2 d w2 2 3 div mul 0 d w6 neg w2 neg d w2 w6 d 0 w2 -2 3 div mul d w2 neg w6 d w6 w2 neg d w2 -2 3 div mul 0 d w6 w2 d w2 neg w6 neg d 0 w2 2 3 div mul d w2 w6 neg d cl s} def
/m45 {mp x y m w6 neg w2 d w2 2 3 div mul 0 d w6 neg w2 neg d w2 w6 d 0 w2 -2 3 div mul d w2 neg w6 d w6 w2 neg d w2 -2 3 div mul 0 d w6 w2 d w2 neg w6 neg d 0 w2 2 3 div mul d w2 w6 neg d cl f} def
/m46 {mp x y w4 add m w4 neg w4 d w4 neg w4 neg d  w4 w4 neg d w4 neg w4 neg d w4 w4 neg d w4 w4 d w4 w4 neg d w4 w4 d w4 neg w4 d w4 w4 d w4 neg w4 d w4 neg w4 neg d cl s} def
/m47 {mp x y w4 add m w4 neg w4 d w4 neg w4 neg d w4 w4 neg d w4 neg w4 neg d  w4 w4 neg d w4 w4 d w4 w4 neg d w4 w4 d w4 neg w4 d w4 w4 d w4 neg w4 d w4 neg w4 neg d cl f} def
/m48 {mp x y w4 add m w4 neg w4 d w4 neg w4 neg d w4 w4 neg d  w4 neg w4 neg d w4 w4 neg d w4 w4 d w4 w4 neg d w4 w4 d w4 neg w4 d w4 w4 d w4 neg w4 d w4 neg w4 neg d  w4 w4 neg d w4 neg w4 neg d w4 neg w4 d w4 w4 d cl f} def
/m49 {mp x w2 sub w3 add y w2 sub w3 add m  0 w3 neg d w3 0 d 0 w3 d w3 0 d 0 w3 d w3 neg 0 d 0 w3 d w3 neg 0 d 0 w3 neg d w3 neg 0 d 0 w3 neg d w3 0 d 0 w3 d w3 0 d 0 w3 neg d w3 neg 0 d cl f } def
/m2 {mp x y w2 sub m 0 w d x w2 sub y m w 0 d s} def
/m5 {mp x w2 sub y w2 sub m w w d x w2 sub y w2 add m w w neg d s} def
%%IncludeResource: ProcSet (FontSetInit)
%%IncludeResource: font Times-Roman
%%IncludeResource: font Times-Italic
%%IncludeResource: font Times-Bold
%%IncludeResource: font Times-BoldItalic
%%IncludeResource: font Helvetica
%%IncludeResource: font Helvetica-Oblique
%%IncludeResource: font Helvetica-Bold
%%IncludeResource: font Helvetica-BoldOblique
%%IncludeResource: font Courier
%%IncludeResource: font Courier-Oblique
%%IncludeResource: font Courier-Bold
%%IncludeResource: font Courier-BoldOblique
%%IncludeResource: font Symbol
%%IncludeResource: font ZapfDingbats
/reEncode {exch findfont dup length dict begin {1 index /FID eq  {pop pop} {def} ifelse } forall /Encoding exch def currentdict end dup /FontName get exch definefont pop } def [/Times-Bold /Times-Italic /Times-BoldItalic /Helvetica /Helvetica-Oblique
 /Helvetica-Bold /Helvetica-BoldOblique /Courier /Courier-Oblique /Courier-Bold /Courier-BoldOblique /Times-Roman /AvantGarde-Book /AvantGarde-BookOblique /AvantGarde-Demi /AvantGarde-DemiOblique /Bookman-Demi /Bookman-DemiItalic /Bookman-Light
 /Bookman-LightItalic /Helvetica-Narrow /Helvetica-Narrow-Bold /Helvetica-Narrow-BoldOblique /Helvetica-Narrow-Oblique /NewCenturySchlbk-Roman /NewCenturySchlbk-Bold /NewCenturySchlbk-BoldItalic /NewCenturySchlbk-Italic /Palatino-Bold
 /Palatino-BoldItalic /Palatino-Italic /Palatino-Roman ] {ISOLatin1Encoding reEncode } forall
%%EndProlog
%%BeginSetup
%%EndSetup
newpath  gsave  .25 .25 scale  gsave  0 0 t black[  ] 0 sd 3 lw 1 1 1 c 2268 1596 0 0 bf black 1 1 1 c 839 735 0 846 bf black 1 1 1 c 705 735 134 846 bf black 705 735 134 846 bl 1 1 1 c 705 735 134 846 bf black 705 735 134 846 bl 1 0 0 c 6 lw 1 1 1 c
 1 0 0 c 144 1095 m s 144 1095 m s 134 1095 m 10 X s 144 1095 m 9 X s 162 1264 m 1 Y s 162 1265 m s 153 1265 m 9 X s 162 1265 m 9 X s 190 1321 m s 190 1321 m 1 Y s 171 1321 m 19 X s 190 1321 m 18 X s 227 1339 m s 227 1339 m s 208 1339 m 19 X s 227
 1339 m 19 X s 264 1345 m s 264 1345 m s 246 1345 m 18 X s 264 1345 m 19 X s 301 1355 m 1 Y s 301 1356 m s 283 1356 m 18 X s 301 1356 m 19 X s 338 1364 m s 338 1364 m s 320 1364 m 18 X s 338 1364 m 19 X s 375 1370 m 1 Y s 375 1371 m s 357 1371 m 18 X
 s 375 1371 m 19 X s 412 1375 m 1 Y s 412 1376 m s 394 1376 m 18 X s 412 1376 m 19 X s 450 1379 m 1 Y s 450 1380 m s 431 1380 m 19 X s 450 1380 m 18 X s 487 1383 m s 487 1383 m 1 Y s 468 1383 m 19 X s 487 1383 m 18 X s 524 1385 m 1 Y s 524 1386 m s
 505 1386 m 19 X s 524 1386 m 18 X s 561 1388 m s 561 1388 m 1 Y s 542 1388 m 19 X s 561 1388 m 18 X s 598 1389 m 1 Y s 598 1390 m 1 Y s 579 1390 m 19 X s 598 1390 m 18 X s 635 1391 m 1 Y s 635 1392 m 1 Y s 616 1392 m 19 X s 635 1392 m 19 X s 746
 1396 m s 746 1396 m 1 Y s 654 1396 m 92 X s 746 1396 m 93 X s black 3 lw 134 846 m 705 X s 283 865 m -19 Y s 320 855 m -9 Y s 357 855 m -9 Y s 394 855 m -9 Y s 431 855 m -9 Y s 468 865 m -19 Y s 505 855 m -9 Y s 542 855 m -9 Y s 579 855 m -9 Y s 616
 855 m -9 Y s 654 865 m -19 Y s 691 855 m -9 Y s 728 855 m -9 Y s 765 855 m -9 Y s 802 855 m -9 Y s 839 865 m -19 Y s 283 865 m -19 Y s 246 855 m -9 Y s 208 855 m -9 Y s 171 855 m -9 Y s 134 855 m -9 Y s
 gsave  839 735 0 846 C 254.034 809.604 t 0 r /Helvetica findfont 39.3051 sf 0 0 m (0.5) show NC gr 
 gsave  839 735 0 846 C 458.5 809.604 t 0 r /Helvetica findfont 39.3051 sf 0 0 m (1) show NC gr 
 gsave  839 735 0 846 C 625.791 809.604 t 0 r /Helvetica findfont 39.3051 sf 0 0 m (1.5) show NC gr 
 gsave  839 735 0 846 C 828.192 809.604 t 0 r /Helvetica findfont 39.3051 sf 0 0 m (2) show NC gr 
 gsave  839 735 0 846 C 729.056 780.689 t 0 r /Helvetica findfont 39.3051 sf 0 0 m ( [GeV]) show NC gr 
 gsave  839 735 0 846 C 712.534 760.036 t 0 r /Helvetica findfont 24.8243 sf 0 0 m (T) show NC gr 
 gsave  839 735 0 846 C 689.815 780.689 t 0 r /Helvetica findfont 39.3051 sf 0 0 m (p) show NC gr  134 1581 m 705 X s 283 1562 m 19 Y s 320 1571 m 10 Y s 357 1571 m 10 Y s 394 1571 m 10 Y s 431 1571 m 10 Y s 468 1562 m 19 Y s 505 1571 m 10 Y s 542
 1571 m 10 Y s 579 1571 m 10 Y s 616 1571 m 10 Y s 654 1562 m 19 Y s 691 1571 m 10 Y s 728 1571 m 10 Y s 765 1571 m 10 Y s 802 1571 m 10 Y s 839 1562 m 19 Y s 283 1562 m 19 Y s 246 1571 m 10 Y s 208 1571 m 10 Y s 171 1571 m 10 Y s 134 1571 m 10 Y s
 134 846 m 735 Y s 159 992 m -25 X s 147 1029 m -13 X s 147 1066 m -13 X s 147 1103 m -13 X s 159 1139 m -25 X s 147 1176 m -13 X s 147 1213 m -13 X s 147 1250 m -13 X s 159 1286 m -25 X s 147 1323 m -13 X s 147 1360 m -13 X s 147 1397 m -13 X s 159
 1434 m -25 X s 147 1470 m -13 X s 147 1507 m -13 X s 147 1544 m -13 X s 159 1581 m -25 X s 159 992 m -25 X s 147 956 m -13 X s 147 919 m -13 X s 147 882 m -13 X s 159 1581 m -25 X s
 gsave  839 735 0 846 C 80.5473 978.96 t 0 r /Helvetica findfont 35.1677 sf 0 0 m (0.2) show NC gr 
 gsave  839 735 0 846 C 78.482 1125.6 t 0 r /Helvetica findfont 35.1677 sf 0 0 m (0.4) show NC gr 
 gsave  839 735 0 846 C 80.5473 1272.23 t 0 r /Helvetica findfont 35.1677 sf 0 0 m (0.6) show NC gr 
 gsave  839 735 0 846 C 80.5473 1420.94 t 0 r /Helvetica findfont 35.1677 sf 0 0 m (0.8) show NC gr 
 gsave  839 735 0 846 C 115.658 1567.57 t 0 r /Helvetica findfont 35.1677 sf 0 0 m (1) show NC gr 
 gsave  839 735 0 846 C 51.6329 1379.63 t 90 r /Helvetica findfont 47.5799 sf 0 0 m (Efficiency) show NC gr  839 846 m 735 Y s 814 992 m 25 X s 826 1029 m 13 X s 826 1066 m 13 X s 826 1103 m 13 X s 814 1139 m 25 X s 826 1176 m 13 X s 826 1213 m 13 X
 s 826 1250 m 13 X s 814 1286 m 25 X s 826 1323 m 13 X s 826 1360 m 13 X s 826 1397 m 13 X s 814 1434 m 25 X s 826 1470 m 13 X s 826 1507 m 13 X s 826 1544 m 13 X s 814 1581 m 25 X s 814 992 m 25 X s 826 956 m 13 X s 826 919 m 13 X s 826 882 m 13 X s
 814 1581 m 25 X s
 gsave  839 735 0 846 C 334.581 1288.76 t 0 r /Helvetica-BoldOblique findfont 41.3738 sf 0 0 m (ATLAS) show NC gr 
 gsave  839 735 0 846 C 536.982 1288.76 t 0 r /Helvetica findfont 41.3738 sf 0 0 m (Internal) show NC gr 
 gsave  839 735 0 846 C 375.887 1237.12 t 0 r /Helvetica findfont 41.3738 sf 0 0 m (=13 TeV) show NC gr 
 gsave  839 735 0 846 C 355.234 1237.12 t 0 r /Helvetica findfont 41.3738 sf 0 0 m (s) show NC gr  6 lw 343 1260 m 4 -25 d s 3 lw 347 1235 m 4 37 d s 351 1272 m 25 X s
 gsave  839 735 0 846 C 334.581 1185.49 t 0 r /Helvetica findfont 41.3738 sf 0 0 m (Simulation) show NC gr 
 gsave  839 735 0 846 C 446.108 1140.05 t 0 r /Helvetica findfont 41.3738 sf 0 0 m (|<2.5) show NC gr 
 gsave  839 735 0 846 C 423.39 1140.05 t 0 r /Symbol findfont 41.3738 sf 0 0 m (h) show NC gr 
 gsave  839 735 0 846 C 334.581 1140.05 t 0 r /Helvetica findfont 41.3738 sf 0 0 m (2.0<|) show NC gr  1 1 1 c 839 846 0 0 bf black 1 1 1 c 705 719 134 127 bf black 705 719 134 127 bl 1 1 1 c 705 719 134 127 bf black 705 719 134 127 bl 1 0 0 c 6 lw 1
 1 1 c 1 0 0 c 144 330 m s 144 330 m s 134 330 m 10 X s 144 330 m 9 X s 162 650 m 1 Y s 162 651 m s 153 651 m 9 X s 162 651 m 9 X s 190 701 m s 190 701 m s 171 701 m 19 X s 190 701 m 18 X s 227 723 m s 227 723 m s 208 723 m 19 X s 227 723 m 19 X s
 264 729 m s 264 729 m s 246 729 m 18 X s 264 729 m 19 X s 301 739 m s 301 739 m s 283 739 m 18 X s 301 739 m 19 X s 338 741 m s 338 741 m s 320 741 m 18 X s 338 741 m 19 X s 375 741 m s 375 741 m 1 Y s 357 741 m 18 X s 375 741 m 19 X s 412 742 m s
 412 742 m 1 Y s 394 742 m 18 X s 412 742 m 19 X s 450 744 m 1 Y s 450 745 m s 431 745 m 19 X s 450 745 m 18 X s 487 747 m s 487 747 m s 468 747 m 19 X s 487 747 m 18 X s 524 749 m s 524 749 m s 505 749 m 19 X s 524 749 m 18 X s 561 751 m s 561 751 m
 s 542 751 m 19 X s 561 751 m 18 X s 598 753 m s 598 753 m 1 Y s 579 753 m 19 X s 598 753 m 18 X s 635 754 m 1 Y s 635 755 m s 616 755 m 19 X s 635 755 m 19 X s 746 758 m s 746 758 m 1 Y s 654 758 m 92 X s 746 758 m 93 X s black 3 lw 134 127 m 705 X
 s 283 148 m -21 Y s 320 138 m -11 Y s 357 138 m -11 Y s 394 138 m -11 Y s 431 138 m -11 Y s 468 148 m -21 Y s 505 138 m -11 Y s 542 138 m -11 Y s 579 138 m -11 Y s 616 138 m -11 Y s 654 148 m -21 Y s 691 138 m -11 Y s 728 138 m -11 Y s 765 138 m -11
 Y s 802 138 m -11 Y s 839 148 m -21 Y s 283 148 m -21 Y s 246 138 m -11 Y s 208 138 m -11 Y s 171 138 m -11 Y s 134 138 m -11 Y s
 gsave  839 846 0 0 C 254.034 90.8739 t 0 r /Helvetica findfont 39.2661 sf 0 0 m (0.5) show NC gr 
 gsave  839 846 0 0 C 458.5 90.8739 t 0 r /Helvetica findfont 39.2661 sf 0 0 m (1) show NC gr 
 gsave  839 846 0 0 C 625.791 90.8739 t 0 r /Helvetica findfont 39.2661 sf 0 0 m (1.5) show NC gr 
 gsave  839 846 0 0 C 828.192 90.8739 t 0 r /Helvetica findfont 39.2661 sf 0 0 m (2) show NC gr 
 gsave  839 846 0 0 C 729.056 51.6329 t 0 r /Helvetica findfont 39.2661 sf 0 0 m ( [GeV]) show NC gr 
 gsave  839 846 0 0 C 712.534 30.9797 t 0 r /Helvetica findfont 24.7997 sf 0 0 m (T) show NC gr 
 gsave  839 846 0 0 C 689.815 51.6329 t 0 r /Helvetica findfont 39.2661 sf 0 0 m (p) show NC gr  134 846 m 705 X s 283 825 m 21 Y s 320 835 m 11 Y s 357 835 m 11 Y s 394 835 m 11 Y s 431 835 m 11 Y s 468 825 m 21 Y s 505 835 m 11 Y s 542 835 m 11 Y s
 579 835 m 11 Y s 616 835 m 11 Y s 654 825 m 21 Y s 691 835 m 11 Y s 728 835 m 11 Y s 765 835 m 11 Y s 802 835 m 11 Y s 839 825 m 21 Y s 283 825 m 21 Y s 246 835 m 11 Y s 208 835 m 11 Y s 171 835 m 11 Y s 134 835 m 11 Y s 134 127 m 719 Y s 156 270 m
 -22 X s 145 306 m -11 X s 145 342 m -11 X s 145 378 m -11 X s 156 414 m -22 X s 145 450 m -11 X s 145 486 m -11 X s 145 522 m -11 X s 156 558 m -22 X s 145 594 m -11 X s 145 630 m -11 X s 145 666 m -11 X s 156 702 m -22 X s 145 738 m -11 X s 145 774
 m -11 X s 145 810 m -11 X s 156 846 m -22 X s 156 270 m -22 X s 145 234 m -11 X s 145 198 m -11 X s 145 162 m -11 X s
 gsave  839 846 0 0 C 74.3514 256.099 t 0 r /Helvetica findfont 39.2661 sf 0 0 m (0.2) show NC gr 
 gsave  839 846 0 0 C 74.3514 400.671 t 0 r /Helvetica findfont 39.2661 sf 0 0 m (0.4) show NC gr 
 gsave  839 846 0 0 C 74.3514 545.243 t 0 r /Helvetica findfont 39.2661 sf 0 0 m (0.6) show NC gr 
 gsave  839 846 0 0 C 74.3514 687.75 t 0 r /Helvetica findfont 39.2661 sf 0 0 m (0.8) show NC gr 
 gsave  839 846 0 0 C 113.592 830.257 t 0 r /Helvetica findfont 39.2661 sf 0 0 m (1) show NC gr 
 gsave  839 846 0 0 C 49.5676 644.378 t 90 r /Helvetica findfont 47.5327 sf 0 0 m (Efficiency) show NC gr  839 127 m 719 Y s 818 270 m 21 X s 828 306 m 11 X s 828 342 m 11 X s 828 378 m 11 X s 818 414 m 21 X s 828 450 m 11 X s 828 486 m 11 X s 828
 522 m 11 X s 818 558 m 21 X s 828 594 m 11 X s 828 630 m 11 X s 828 666 m 11 X s 818 702 m 21 X s 828 738 m 11 X s 828 774 m 11 X s 828 810 m 11 X s 818 846 m 21 X s 818 270 m 21 X s 828 234 m 11 X s 828 198 m 11 X s 828 162 m 11 X s
 gsave  839 846 0 0 C 452.304 338.712 t 0 r /Helvetica findfont 43.3994 sf 0 0 m (|<1.0) show NC gr 
 gsave  839 846 0 0 C 427.52 338.712 t 0 r /Symbol findfont 43.3994 sf 0 0 m (h) show NC gr 
 gsave  839 846 0 0 C 334.581 338.712 t 0 r /Helvetica findfont 43.3994 sf 0 0 m (0.5<|) show NC gr  1 1 1 c 703 735 839 846 bf black 1 1 1 c 703 735 839 846 bf black 703 735 839 846 bl 1 1 1 c 703 735 839 846 bf black 703 735 839 846 bl 1 0 0 c 6 lw
 1 1 1 c 1 0 0 c 848 1067 m s 848 1067 m s 839 1067 m 9 X s 848 1067 m 10 X s 867 1315 m s 867 1315 m s 858 1315 m 9 X s 867 1315 m 9 X s 895 1379 m s 895 1379 m s 876 1379 m 19 X s 895 1379 m 18 X s 932 1374 m s 932 1374 m 1 Y s 913 1374 m 19 X s
 932 1374 m 18 X s 969 1368 m s 969 1368 m s 950 1368 m 19 X s 969 1368 m 18 X s 1006 1374 m 1 Y s 1006 1375 m s 987 1375 m 19 X s 1006 1375 m 18 X s 1043 1381 m 1 Y s 1043 1382 m s 1024 1382 m 19 X s 1043 1382 m 18 X s 1080 1387 m 1 Y s 1080 1388 m
 s 1061 1388 m 19 X s 1080 1388 m 18 X s 1117 1392 m 1 Y s 1117 1393 m s 1098 1393 m 19 X s 1117 1393 m 18 X s 1154 1397 m s 1154 1397 m s 1135 1397 m 19 X s 1154 1397 m 18 X s 1191 1400 m 1 Y s 1191 1401 m s 1172 1401 m 19 X s 1191 1401 m 18 X s
 1228 1403 m s 1228 1403 m s 1209 1403 m 19 X s 1228 1403 m 18 X s 1265 1405 m 1 Y s 1265 1406 m s 1246 1406 m 19 X s 1265 1406 m 18 X s 1302 1407 m 1 Y s 1302 1408 m 1 Y s 1283 1408 m 19 X s 1302 1408 m 18 X s 1339 1410 m s 1339 1410 m 1 Y s 1320
 1410 m 19 X s 1339 1410 m 18 X s 1450 1415 m s 1450 1415 m s 1357 1415 m 93 X s 1450 1415 m 92 X s black 3 lw 839 846 m 703 X s 987 868 m -22 Y s 1024 857 m -11 Y s 1061 857 m -11 Y s 1098 857 m -11 Y s 1135 857 m -11 Y s 1172 868 m -22 Y s 1209 857
 m -11 Y s 1246 857 m -11 Y s 1283 857 m -11 Y s 1320 857 m -11 Y s 1357 868 m -22 Y s 1394 857 m -11 Y s 1431 857 m -11 Y s 1468 857 m -11 Y s 1505 857 m -11 Y s 1542 868 m -22 Y s 987 868 m -22 Y s 950 857 m -11 Y s 913 857 m -11 Y s 876 857 m -11
 Y s 839 857 m -11 Y s
 gsave  703 735 839 846 C 958.306 809.604 t 0 r /Helvetica findfont 39.2849 sf 0 0 m (0.5) show NC gr 
 gsave  703 735 839 846 C 1162.77 809.604 t 0 r /Helvetica findfont 39.2849 sf 0 0 m (1) show NC gr 
 gsave  703 735 839 846 C 1330.06 809.604 t 0 r /Helvetica findfont 39.2849 sf 0 0 m (1.5) show NC gr 
 gsave  703 735 839 846 C 1530.4 809.604 t 0 r /Helvetica findfont 39.2849 sf 0 0 m (2) show NC gr 
 gsave  703 735 839 846 C 1431.26 780.689 t 0 r /Helvetica findfont 39.2849 sf 0 0 m ( [GeV]) show NC gr 
 gsave  703 735 839 846 C 1414.74 760.036 t 0 r /Helvetica findfont 24.8115 sf 0 0 m (T) show NC gr 
 gsave  703 735 839 846 C 1392.02 780.689 t 0 r /Helvetica findfont 39.2849 sf 0 0 m (p) show NC gr  839 1581 m 703 X s 987 1558 m 23 Y s 1024 1570 m 11 Y s 1061 1570 m 11 Y s 1098 1570 m 11 Y s 1135 1570 m 11 Y s 1172 1558 m 23 Y s 1209 1570 m 11 Y
 s 1246 1570 m 11 Y s 1283 1570 m 11 Y s 1320 1570 m 11 Y s 1357 1558 m 23 Y s 1394 1570 m 11 Y s 1431 1570 m 11 Y s 1468 1570 m 11 Y s 1505 1570 m 11 Y s 1542 1558 m 23 Y s 987 1558 m 23 Y s 950 1570 m 11 Y s 913 1570 m 11 Y s 876 1570 m 11 Y s 839
 1570 m 11 Y s 839 846 m 735 Y s 860 992 m -21 X s 850 1029 m -11 X s 850 1066 m -11 X s 850 1103 m -11 X s 860 1139 m -21 X s 850 1176 m -11 X s 850 1213 m -11 X s 850 1250 m -11 X s 860 1286 m -21 X s 850 1323 m -11 X s 850 1360 m -11 X s 850 1397
 m -11 X s 860 1434 m -21 X s 850 1470 m -11 X s 850 1507 m -11 X s 850 1544 m -11 X s 860 1581 m -21 X s 860 992 m -21 X s 850 956 m -11 X s 850 919 m -11 X s 850 882 m -11 X s 860 1581 m -21 X s
 gsave  703 735 839 846 C 788.951 981.025 t 0 r /Helvetica findfont 33.082 sf 0 0 m (0.2) show NC gr 
 gsave  703 735 839 846 C 788.951 1127.66 t 0 r /Helvetica findfont 33.082 sf 0 0 m (0.4) show NC gr 
 gsave  703 735 839 846 C 788.951 1274.3 t 0 r /Helvetica findfont 33.082 sf 0 0 m (0.6) show NC gr 
 gsave  703 735 839 846 C 788.951 1423 t 0 r /Helvetica findfont 33.082 sf 0 0 m (0.8) show NC gr 
 gsave  703 735 839 846 C 821.996 1567.57 t 0 r /Helvetica findfont 33.082 sf 0 0 m (1) show NC gr 
 gsave  703 735 839 846 C 768.297 1414.74 t 90 r /Helvetica findfont 39.2849 sf 0 0 m (Efficiency) show NC gr  1542 846 m 735 Y s 1521 992 m 21 X s 1532 1029 m 10 X s 1532 1066 m 10 X s 1532 1103 m 10 X s 1521 1139 m 21 X s 1532 1176 m 10 X s 1532
 1213 m 10 X s 1532 1250 m 10 X s 1521 1286 m 21 X s 1532 1323 m 10 X s 1532 1360 m 10 X s 1532 1397 m 10 X s 1521 1434 m 21 X s 1532 1470 m 10 X s 1532 1507 m 10 X s 1532 1544 m 10 X s 1521 1581 m 21 X s 1521 992 m 21 X s 1532 956 m 10 X s 1532 919
 m 10 X s 1532 882 m 10 X s 1521 1581 m 21 X s
 gsave  703 735 839 846 C 1237.12 1140.05 t 0 r /Helvetica findfont 43.4201 sf 0 0 m (|<2.0) show NC gr 
 gsave  703 735 839 846 C 1212.34 1140.05 t 0 r /Symbol findfont 43.4201 sf 0 0 m (h) show NC gr 
 gsave  703 735 839 846 C 1119.4 1140.05 t 0 r /Helvetica findfont 43.4201 sf 0 0 m (1.5<|) show NC gr  1 1 1 c 703 846 839 0 bf black 1 1 1 c 703 719 839 127 bf black 703 719 839 127 bl 1 1 1 c 703 719 839 127 bf black 703 719 839 127 bl 1 0 0 c 6
 lw 1 1 1 c 1 0 0 c 848 305 m s 848 305 m s 839 305 m 9 X s 848 305 m 10 X s 867 673 m 1 Y s 867 674 m s 858 674 m 9 X s 867 674 m 9 X s 895 705 m s 895 705 m s 876 705 m 19 X s 895 705 m 18 X s 932 717 m 1 Y s 932 718 m s 913 718 m 19 X s 932 718 m
 18 X s 969 728 m s 969 728 m s 950 728 m 19 X s 969 728 m 18 X s 1006 745 m 1 Y s 1006 746 m s 987 746 m 19 X s 1006 746 m 18 X s 1043 753 m 1 Y s 1043 754 m s 1024 754 m 19 X s 1043 754 m 18 X s 1080 756 m s 1080 756 m s 1061 756 m 19 X s 1080 756
 m 18 X s 1117 756 m s 1117 756 m s 1098 756 m 19 X s 1117 756 m 18 X s 1154 756 m s 1154 756 m s 1135 756 m 19 X s 1154 756 m 18 X s 1191 756 m 1 Y s 1191 757 m s 1172 757 m 19 X s 1191 757 m 18 X s 1228 758 m 1 Y s 1228 759 m s 1209 759 m 19 X s
 1228 759 m 18 X s 1265 760 m s 1265 760 m s 1246 760 m 19 X s 1265 760 m 18 X s 1302 761 m s 1302 761 m 1 Y s 1283 761 m 19 X s 1302 761 m 18 X s 1339 763 m s 1339 763 m 1 Y s 1320 763 m 19 X s 1339 763 m 18 X s 1450 767 m s 1450 767 m s 1357 767 m
 93 X s 1450 767 m 92 X s black 3 lw 839 127 m 703 X s 987 152 m -25 Y s 1024 140 m -13 Y s 1061 140 m -13 Y s 1098 140 m -13 Y s 1135 140 m -13 Y s 1172 152 m -25 Y s 1209 140 m -13 Y s 1246 140 m -13 Y s 1283 140 m -13 Y s 1320 140 m -13 Y s 1357
 152 m -25 Y s 1394 140 m -13 Y s 1431 140 m -13 Y s 1468 140 m -13 Y s 1505 140 m -13 Y s 1542 152 m -25 Y s 987 152 m -25 Y s 950 140 m -13 Y s 913 140 m -13 Y s 876 140 m -13 Y s 839 140 m -13 Y s
 gsave  703 846 839 0 C 958.306 90.8739 t 0 r /Helvetica findfont 39.2849 sf 0 0 m (0.5) show NC gr 
 gsave  703 846 839 0 C 1162.77 90.8739 t 0 r /Helvetica findfont 39.2849 sf 0 0 m (1) show NC gr 
 gsave  703 846 839 0 C 1330.06 90.8739 t 0 r /Helvetica findfont 39.2849 sf 0 0 m (1.5) show NC gr 
 gsave  703 846 839 0 C 1530.4 90.8739 t 0 r /Helvetica findfont 39.2849 sf 0 0 m (2) show NC gr 
 gsave  703 846 839 0 C 1431.26 51.6329 t 0 r /Helvetica findfont 39.2849 sf 0 0 m ( [GeV]) show NC gr 
 gsave  703 846 839 0 C 1414.74 30.9797 t 0 r /Helvetica findfont 24.8115 sf 0 0 m (T) show NC gr 
 gsave  703 846 839 0 C 1392.02 51.6329 t 0 r /Helvetica findfont 39.2849 sf 0 0 m (p) show NC gr  839 846 m 703 X s 987 821 m 25 Y s 1024 833 m 13 Y s 1061 833 m 13 Y s 1098 833 m 13 Y s 1135 833 m 13 Y s 1172 821 m 25 Y s 1209 833 m 13 Y s 1246 833
 m 13 Y s 1283 833 m 13 Y s 1320 833 m 13 Y s 1357 821 m 25 Y s 1394 833 m 13 Y s 1431 833 m 13 Y s 1468 833 m 13 Y s 1505 833 m 13 Y s 1542 821 m 25 Y s 987 821 m 25 Y s 950 833 m 13 Y s 913 833 m 13 Y s 876 833 m 13 Y s 839 833 m 13 Y s 839 127 m
 719 Y s 857 270 m -18 X s 848 306 m -9 X s 848 342 m -9 X s 848 378 m -9 X s 857 414 m -18 X s 848 450 m -9 X s 848 486 m -9 X s 848 522 m -9 X s 857 558 m -18 X s 848 594 m -9 X s 848 630 m -9 X s 848 666 m -9 X s 857 702 m -18 X s 848 738 m -9 X s
 848 774 m -9 X s 848 810 m -9 X s 857 846 m -18 X s 857 270 m -18 X s 848 234 m -9 X s 848 198 m -9 X s 848 162 m -9 X s
 gsave  703 846 839 0 C 788.951 258.164 t 0 r /Helvetica findfont 33.082 sf 0 0 m (0.2) show NC gr 
 gsave  703 846 839 0 C 788.951 402.737 t 0 r /Helvetica findfont 33.082 sf 0 0 m (0.4) show NC gr 
 gsave  703 846 839 0 C 788.951 547.309 t 0 r /Helvetica findfont 33.082 sf 0 0 m (0.6) show NC gr 
 gsave  703 846 839 0 C 788.951 689.815 t 0 r /Helvetica findfont 33.082 sf 0 0 m (0.8) show NC gr 
 gsave  703 846 839 0 C 821.996 832.322 t 0 r /Helvetica findfont 33.082 sf 0 0 m (1) show NC gr 
 gsave  703 846 839 0 C 768.297 679.489 t 90 r /Helvetica findfont 39.2849 sf 0 0 m (Efficiency) show NC gr  1542 127 m 719 Y s 1524 270 m 18 X s 1533 306 m 9 X s 1533 342 m 9 X s 1533 378 m 9 X s 1524 414 m 18 X s 1533 450 m 9 X s 1533 486 m 9 X s
 1533 522 m 9 X s 1524 558 m 18 X s 1533 594 m 9 X s 1533 630 m 9 X s 1533 666 m 9 X s 1524 702 m 18 X s 1533 738 m 9 X s 1533 774 m 9 X s 1533 810 m 9 X s 1524 846 m 18 X s 1524 270 m 18 X s 1533 234 m 9 X s 1533 198 m 9 X s 1533 162 m 9 X s
 gsave  703 846 839 0 C 1237.12 338.712 t 0 r /Helvetica findfont 43.4201 sf 0 0 m (|<0.5) show NC gr 
 gsave  703 846 839 0 C 1212.34 338.712 t 0 r /Symbol findfont 43.4201 sf 0 0 m (h) show NC gr 
 gsave  703 846 839 0 C 1119.4 338.712 t 0 r /Helvetica findfont 43.4201 sf 0 0 m (0.0<|) show NC gr  1 1 1 c 703 735 1542 846 bf black 1 1 1 c 696 735 1542 846 bf black 696 735 1542 846 bl 1 1 1 c 696 735 1542 846 bf black 696 735 1542 846 bl 1 0 0
 c 6 lw 1 1 1 c 1 0 0 c 1551 1046 m s 1551 1046 m s 1542 1046 m 9 X s 1551 1046 m 9 X s 1570 1347 m 1 Y s 1570 1348 m s 1560 1348 m 10 X s 1570 1348 m 9 X s 1597 1426 m s 1597 1426 m s 1579 1426 m 18 X s 1597 1426 m 18 X s 1634 1440 m s 1634 1440 m s
 1615 1440 m 19 X s 1634 1440 m 18 X s 1670 1419 m s 1670 1419 m 1 Y s 1652 1419 m 18 X s 1670 1419 m 19 X s 1707 1419 m s 1707 1419 m s 1689 1419 m 18 X s 1707 1419 m 18 X s 1744 1423 m s 1744 1423 m s 1725 1423 m 19 X s 1744 1423 m 18 X s 1780 1428
 m s 1780 1428 m s 1762 1428 m 18 X s 1780 1428 m 18 X s 1817 1432 m s 1817 1432 m s 1798 1432 m 19 X s 1817 1432 m 18 X s 1853 1435 m 1 Y s 1853 1436 m s 1835 1436 m 18 X s 1853 1436 m 19 X s 1890 1439 m s 1890 1439 m s 1872 1439 m 18 X s 1890 1439
 m 18 X s 1927 1442 m s 1927 1442 m 1 Y s 1908 1442 m 19 X s 1927 1442 m 18 X s 1963 1444 m 1 Y s 1963 1445 m s 1945 1445 m 18 X s 1963 1445 m 19 X s 2000 1446 m 1 Y s 2000 1447 m s 1982 1447 m 18 X s 2000 1447 m 18 X s 2037 1448 m s 2037 1448 m 1 Y
 s 2018 1448 m 19 X s 2037 1448 m 18 X s 2146 1452 m 1 Y s 2146 1453 m s 2055 1453 m 91 X s 2146 1453 m 92 X s black 3 lw 1542 846 m 696 X s 1689 868 m -22 Y s 1725 857 m -11 Y s 1762 857 m -11 Y s 1798 857 m -11 Y s 1835 857 m -11 Y s 1872 868 m -22
 Y s 1908 857 m -11 Y s 1945 857 m -11 Y s 1982 857 m -11 Y s 2018 857 m -11 Y s 2055 868 m -22 Y s 2091 857 m -11 Y s 2128 857 m -11 Y s 2165 857 m -11 Y s 2201 857 m -11 Y s 2238 868 m -22 Y s 1689 868 m -22 Y s 1652 857 m -11 Y s 1615 857 m -11 Y
 s 1579 857 m -11 Y s 1542 857 m -11 Y s
 gsave  703 735 1542 846 C 1660.51 809.604 t 0 r /Helvetica findfont 39.2849 sf 0 0 m (0.5) show NC gr 
 gsave  703 735 1542 846 C 1862.91 809.604 t 0 r /Helvetica findfont 39.2849 sf 0 0 m (1) show NC gr 
 gsave  703 735 1542 846 C 2026.07 809.604 t 0 r /Helvetica findfont 39.2849 sf 0 0 m (1.5) show NC gr 
 gsave  703 735 1542 846 C 2226.41 809.604 t 0 r /Helvetica findfont 39.2849 sf 0 0 m (2) show NC gr 
 gsave  703 735 1542 846 C 2127.28 780.689 t 0 r /Helvetica findfont 39.2849 sf 0 0 m ( [GeV]) show NC gr 
 gsave  703 735 1542 846 C 2110.75 760.036 t 0 r /Helvetica findfont 24.8115 sf 0 0 m (T) show NC gr 
 gsave  703 735 1542 846 C 2088.03 780.689 t 0 r /Helvetica findfont 39.2849 sf 0 0 m (p) show NC gr  1542 1581 m 696 X s 1689 1559 m 22 Y s 1725 1570 m 11 Y s 1762 1570 m 11 Y s 1798 1570 m 11 Y s 1835 1570 m 11 Y s 1872 1559 m 22 Y s 1908 1570 m 11
 Y s 1945 1570 m 11 Y s 1982 1570 m 11 Y s 2018 1570 m 11 Y s 2055 1559 m 22 Y s 2091 1570 m 11 Y s 2128 1570 m 11 Y s 2165 1570 m 11 Y s 2201 1570 m 11 Y s 2238 1559 m 22 Y s 1689 1559 m 22 Y s 1652 1570 m 11 Y s 1615 1570 m 11 Y s 1579 1570 m 11 Y
 s 1542 1570 m 11 Y s 1542 846 m 735 Y s 1563 992 m -21 X s 1553 1029 m -11 X s 1553 1066 m -11 X s 1553 1103 m -11 X s 1563 1139 m -21 X s 1553 1176 m -11 X s 1553 1213 m -11 X s 1553 1250 m -11 X s 1563 1286 m -21 X s 1553 1323 m -11 X s 1553 1360
 m -11 X s 1553 1397 m -11 X s 1563 1434 m -21 X s 1553 1470 m -11 X s 1553 1507 m -11 X s 1553 1544 m -11 X s 1563 1581 m -21 X s 1563 992 m -21 X s 1553 956 m -11 X s 1553 919 m -11 X s 1553 882 m -11 X s 1563 1581 m -21 X s
 gsave  703 735 1542 846 C 1491.16 981.025 t 0 r /Helvetica findfont 33.082 sf 0 0 m (0.2) show NC gr 
 gsave  703 735 1542 846 C 1491.16 1127.66 t 0 r /Helvetica findfont 33.082 sf 0 0 m (0.4) show NC gr 
 gsave  703 735 1542 846 C 1491.16 1274.3 t 0 r /Helvetica findfont 33.082 sf 0 0 m (0.6) show NC gr 
 gsave  703 735 1542 846 C 1491.16 1423 t 0 r /Helvetica findfont 33.082 sf 0 0 m (0.8) show NC gr 
 gsave  703 735 1542 846 C 1524.2 1567.57 t 0 r /Helvetica findfont 33.082 sf 0 0 m (1) show NC gr 
 gsave  703 735 1542 846 C 1470.5 1414.74 t 90 r /Helvetica findfont 39.2849 sf 0 0 m (Efficiency) show NC gr  2238 846 m 735 Y s 2217 992 m 21 X s 2227 1029 m 11 X s 2227 1066 m 11 X s 2227 1103 m 11 X s 2217 1139 m 21 X s 2227 1176 m 11 X s 2227
 1213 m 11 X s 2227 1250 m 11 X s 2217 1286 m 21 X s 2227 1323 m 11 X s 2227 1360 m 11 X s 2227 1397 m 11 X s 2217 1434 m 21 X s 2227 1470 m 11 X s 2227 1507 m 11 X s 2227 1544 m 11 X s 2217 1581 m 21 X s 2217 992 m 21 X s 2227 956 m 11 X s 2227 919
 m 11 X s 2227 882 m 11 X s 2217 1581 m 21 X s
 gsave  703 735 1542 846 C 1933.14 1140.05 t 0 r /Helvetica findfont 41.3525 sf 0 0 m (|<1.5) show NC gr 
 gsave  703 735 1542 846 C 1910.42 1140.05 t 0 r /Symbol findfont 41.3525 sf 0 0 m (h) show NC gr 
 gsave  703 735 1542 846 C 1821.61 1140.05 t 0 r /Helvetica findfont 41.3525 sf 0 0 m (1.0<|) show NC gr  1 1 1 c 703 846 1542 0 bf black 1 1 1 c 696 719 1542 127 bf black 696 719 1542 127 bl 1 1 1 c 696 719 1542 127 bf black 696 719 1542 127 bl 1 0
 0 c 6 lw 1 1 1 c 1 0 0 c 1551 334 m s 1551 334 m s 1542 334 m 9 X s 1551 334 m 9 X s 1570 613 m s 1570 613 m s 1560 613 m 10 X s 1570 613 m 9 X s 1597 668 m s 1597 668 m s 1579 668 m 18 X s 1597 668 m 18 X s 1634 680 m 1 Y s 1634 681 m s 1615 681 m
 19 X s 1634 681 m 18 X s 1670 680 m s 1670 680 m s 1652 680 m 18 X s 1670 680 m 19 X s 1707 688 m 1 Y s 1707 689 m s 1689 689 m 18 X s 1707 689 m 18 X s 1744 694 m s 1744 694 m s 1725 694 m 19 X s 1744 694 m 18 X s 1780 698 m s 1780 698 m s 1762 698
 m 18 X s 1780 698 m 18 X s 1817 701 m s 1817 701 m s 1798 701 m 19 X s 1817 701 m 18 X s 1853 704 m s 1853 704 m s 1835 704 m 18 X s 1853 704 m 19 X s 1890 707 m s 1890 707 m s 1872 707 m 18 X s 1890 707 m 18 X s 1927 709 m s 1927 709 m s 1908 709 m
 19 X s 1927 709 m 18 X s 1963 711 m s 1963 711 m 1 Y s 1945 711 m 18 X s 1963 711 m 19 X s 2000 713 m s 2000 713 m 1 Y s 1982 713 m 18 X s 2000 713 m 18 X s 2037 715 m s 2037 715 m s 2018 715 m 19 X s 2037 715 m 18 X s 2146 719 m s 2146 719 m s 2055
 719 m 91 X s 2146 719 m 92 X s black 3 lw 1542 127 m 696 X s 1689 152 m -25 Y s 1725 139 m -12 Y s 1762 139 m -12 Y s 1798 139 m -12 Y s 1835 139 m -12 Y s 1872 152 m -25 Y s 1908 139 m -12 Y s 1945 139 m -12 Y s 1982 139 m -12 Y s 2018 139 m -12 Y
 s 2055 152 m -25 Y s 2091 139 m -12 Y s 2128 139 m -12 Y s 2165 139 m -12 Y s 2201 139 m -12 Y s 2238 152 m -25 Y s 1689 152 m -25 Y s 1652 139 m -12 Y s 1615 139 m -12 Y s 1579 139 m -12 Y s 1542 139 m -12 Y s
 gsave  703 846 1542 0 C 1660.51 90.8739 t 0 r /Helvetica findfont 39.2849 sf 0 0 m (0.5) show NC gr 
 gsave  703 846 1542 0 C 1862.91 90.8739 t 0 r /Helvetica findfont 39.2849 sf 0 0 m (1) show NC gr 
 gsave  703 846 1542 0 C 2026.07 90.8739 t 0 r /Helvetica findfont 39.2849 sf 0 0 m (1.5) show NC gr 
 gsave  703 846 1542 0 C 2226.41 90.8739 t 0 r /Helvetica findfont 39.2849 sf 0 0 m (2) show NC gr 
 gsave  703 846 1542 0 C 2127.28 51.6329 t 0 r /Helvetica findfont 39.2849 sf 0 0 m ( [GeV]) show NC gr 
 gsave  703 846 1542 0 C 2110.75 30.9797 t 0 r /Helvetica findfont 24.8115 sf 0 0 m (T) show NC gr 
 gsave  703 846 1542 0 C 2088.03 51.6329 t 0 r /Helvetica findfont 39.2849 sf 0 0 m (p) show NC gr  1542 846 m 696 X s 1689 821 m 25 Y s 1725 834 m 12 Y s 1762 834 m 12 Y s 1798 834 m 12 Y s 1835 834 m 12 Y s 1872 821 m 25 Y s 1908 834 m 12 Y s 1945
 834 m 12 Y s 1982 834 m 12 Y s 2018 834 m 12 Y s 2055 821 m 25 Y s 2091 834 m 12 Y s 2128 834 m 12 Y s 2165 834 m 12 Y s 2201 834 m 12 Y s 2238 821 m 25 Y s 1689 821 m 25 Y s 1652 834 m 12 Y s 1615 834 m 12 Y s 1579 834 m 12 Y s 1542 834 m 12 Y s
 1542 127 m 719 Y s 1560 270 m -18 X s 1551 306 m -9 X s 1551 342 m -9 X s 1551 378 m -9 X s 1560 414 m -18 X s 1551 450 m -9 X s 1551 486 m -9 X s 1551 522 m -9 X s 1560 558 m -18 X s 1551 594 m -9 X s 1551 630 m -9 X s 1551 666 m -9 X s 1560 702 m
 -18 X s 1551 738 m -9 X s 1551 774 m -9 X s 1551 810 m -9 X s 1560 846 m -18 X s 1560 270 m -18 X s 1551 234 m -9 X s 1551 198 m -9 X s 1551 162 m -9 X s
 gsave  703 846 1542 0 C 1491.16 258.164 t 0 r /Helvetica findfont 33.082 sf 0 0 m (0.2) show NC gr 
 gsave  703 846 1542 0 C 1491.16 402.737 t 0 r /Helvetica findfont 33.082 sf 0 0 m (0.4) show NC gr 
 gsave  703 846 1542 0 C 1491.16 547.309 t 0 r /Helvetica findfont 33.082 sf 0 0 m (0.6) show NC gr 
 gsave  703 846 1542 0 C 1491.16 689.815 t 0 r /Helvetica findfont 33.082 sf 0 0 m (0.8) show NC gr 
 gsave  703 846 1542 0 C 1524.2 832.322 t 0 r /Helvetica findfont 33.082 sf 0 0 m (1) show NC gr 
 gsave  703 846 1542 0 C 1470.5 679.489 t 90 r /Helvetica findfont 39.2849 sf 0 0 m (Efficiency) show NC gr  2238 127 m 719 Y s 2220 270 m 18 X s 2229 306 m 9 X s 2229 342 m 9 X s 2229 378 m 9 X s 2220 414 m 18 X s 2229 450 m 9 X s 2229 486 m 9 X s
 2229 522 m 9 X s 2220 558 m 18 X s 2229 594 m 9 X s 2229 630 m 9 X s 2229 666 m 9 X s 2220 702 m 18 X s 2229 738 m 9 X s 2229 774 m 9 X s 2229 810 m 9 X s 2220 846 m 18 X s 2220 270 m 18 X s 2229 234 m 9 X s 2229 198 m 9 X s 2229 162 m 9 X s
 gsave  703 846 1542 0 C 1933.14 338.712 t 0 r /Helvetica findfont 41.3525 sf 0 0 m (|<2.5) show NC gr 
 gsave  703 846 1542 0 C 1910.42 338.712 t 0 r /Symbol findfont 41.3525 sf 0 0 m (h) show NC gr 
 gsave  703 846 1542 0 C 1821.61 338.712 t 0 r /Helvetica findfont 41.3525 sf 0 0 m (0.0<|) show NC gr 
 gr  gr showpage
end
%%EOF
