%!PS-Adobe-2.0 EPSF-2.0
%%BoundingBox:  0 0 567 384
%%Title: figs/can_v2_multDept.eps: can_v2_multDept
%%Creator: ROOT Version 6.20/06
%%CreationDate: Sat Feb 18 00:45:55 2023
%%DocumentNeededResources: ProcSet (FontSetInit)
%%EndComments
%%BeginProlog
80 dict begin
/s {stroke} def /l {lineto} def /m {moveto} def /t {translate} def
/r {rotate} def /rl {roll}  def /R {repeat} def
/d {rlineto} def /rm {rmoveto} def /gr {grestore} def /f {eofill} def
/c {setrgbcolor} def /black {0 setgray} def /sd {setdash} def
/cl {closepath} def /sf {scalefont setfont} def /lw {setlinewidth} def
/box {m dup 0 exch d exch 0 d 0 exch neg d cl} def
/NC{systemdict begin initclip end}def/C{NC box clip newpath}def
/bl {box s} def /bf {gsave box gsave f grestore 1 lw [] 0 sd s grestore} def /Y { 0 exch d} def /X { 0 d} def 
/K {{pop pop 0 moveto} exch kshow} bind def
/ita {/ang 15 def gsave [1 0 ang dup sin exch cos div 1 0 0] concat} def 
/mp {newpath /y exch def /x exch def} def
/side {[w .77 mul w .23 mul] .385 w mul sd w 0 l currentpoint t -144 r} def
/mr {mp x y w2 0 360 arc} def /m24 {mr s} def /m20 {mr f} def
/mb {mp x y w2 add m w2 neg 0 d 0 w neg d w 0 d 0 w d cl} def
/mt {mp x y w2 add m w2 neg w neg d w 0 d cl} def
/w4 {w 4 div} def
/w6 {w 6 div} def
/w8 {w 8 div} def
/m21 {mb f} def /m25 {mb s} def /m22 {mt f} def /m26{mt s} def
/m23 {mp x y w2 sub m w2 w d w neg 0 d cl f} def
/m27 {mp x y w2 add m w3 neg w2 neg d w3 w2 neg d w3 w2 d cl s} def
/m28 {mp x w2 sub y w2 sub w3 add m w3 0 d  0 w3 neg d w3 0 d 0 w3 d w3 0 d  0 w3 d w3 neg 0 d 0 w3 d w3 neg 0 d 0 w3 neg d w3 neg 0 d cl s } def
/m29 {mp gsave x w2 sub y w2 add w3 sub m currentpoint t 4 {side} repeat cl fill gr} def
/m30 {mp gsave x w2 sub y w2 add w3 sub m currentpoint t 4 {side} repeat cl s gr} def
/m31 {mp x y w2 sub m 0 w d x w2 sub y m w 0 d x w2 sub y w2 add m w w neg d x w2 sub y w2 sub m w w d s} def
/m32 {mp x y w2 sub m w2 w d w neg 0 d cl s} def
/m33 {mp x y w2 add m w3 neg w2 neg d w3 w2 neg d w3 w2 d cl f} def
/m34 {mp x w2 sub y w2 sub w3 add m w3 0 d  0 w3 neg d w3 0 d 0 w3 d w3 0 d  0 w3 d w3 neg 0 d 0 w3 d w3 neg 0 d 0 w3 neg d w3 neg 0 d cl f } def
/m35 {mp x y w2 add m w2 neg w2 neg d w2 w2 neg d w2 w2 d w2 neg w2 d x y w2 sub m 0 w d x w2 sub y m w 0 d s} def
/m36 {mb x w2 sub y w2 add m w w neg d x w2 sub y w2 sub m w w d s} def
/m37 {mp x y m w4 neg w2 d w4 neg w2 neg d w2 0 d  w4 neg w2 neg d w2 0 d w4 neg w2 d w2 0 d w4 neg w2 d w4 neg w2 neg d cl s} def
/m38 {mp x w4 sub y w2 add m w4 neg w4 neg d 0 w2 neg d w4 w4 neg d w2 0 d w4 w4 d 0 w2 d w4 neg w4 d w2 neg 0 d x y w2 sub m 0 w d x w2 sub y m w 0 d cl s} def
/m39 {mp x y m w4 neg w2 d w4 neg w2 neg d w2 0 d  w4 neg w2 neg d w2 0 d w4 neg w2 d w2 0 d w4 neg w2 d w4 neg w2 neg d cl f} def
/m40 {mp x y m w4 w2 d w4 w4 neg d w2 neg w4 neg d w2 w4 neg d w4 neg w4 neg d w4 neg w2 d w4 neg w2 neg d w4 neg w4 d w2 w4 d w2 neg w4 d w4 w4 d w4 w2 neg d cl s} def
/m41 {mp x y m w4 w2 d w4 w4 neg d w2 neg w4 neg d w2 w4 neg d w4 neg w4 neg d w4 neg w2 d w4 neg w2 neg d w4 neg w4 d w2 w4 d w2 neg w4 d w4 w4 d w4 w2 neg d cl f} def
/m42 {mp x y w2 add m w8 neg w2 -3 4 div mul d w2 -3 4 div mul w8 neg d w2 3 4 div mul w8 neg d w8 w2 -3 4 div mul d w8 w2 3 4 div mul d w2 3 4 div mul w8 d w2 -3 4 div mul w8 d w8 neg w2 3 4 div mul d cl s} def
/m43 {mp x y w2 add m w8 neg w2 -3 4 div mul d w2 -3 4 div mul w8 neg d w2 3 4 div mul w8 neg d w8 w2 -3 4 div mul d w8 w2 3 4 div mul d w2 3 4 div mul w8 d w2 -3 4 div mul w8 d w8 neg w2 3 4 div mul d cl f} def
/m44 {mp x y m w6 neg w2 d w2 2 3 div mul 0 d w6 neg w2 neg d w2 w6 d 0 w2 -2 3 div mul d w2 neg w6 d w6 w2 neg d w2 -2 3 div mul 0 d w6 w2 d w2 neg w6 neg d 0 w2 2 3 div mul d w2 w6 neg d cl s} def
/m45 {mp x y m w6 neg w2 d w2 2 3 div mul 0 d w6 neg w2 neg d w2 w6 d 0 w2 -2 3 div mul d w2 neg w6 d w6 w2 neg d w2 -2 3 div mul 0 d w6 w2 d w2 neg w6 neg d 0 w2 2 3 div mul d w2 w6 neg d cl f} def
/m46 {mp x y w4 add m w4 neg w4 d w4 neg w4 neg d  w4 w4 neg d w4 neg w4 neg d w4 w4 neg d w4 w4 d w4 w4 neg d w4 w4 d w4 neg w4 d w4 w4 d w4 neg w4 d w4 neg w4 neg d cl s} def
/m47 {mp x y w4 add m w4 neg w4 d w4 neg w4 neg d w4 w4 neg d w4 neg w4 neg d  w4 w4 neg d w4 w4 d w4 w4 neg d w4 w4 d w4 neg w4 d w4 w4 d w4 neg w4 d w4 neg w4 neg d cl f} def
/m48 {mp x y w4 add m w4 neg w4 d w4 neg w4 neg d w4 w4 neg d  w4 neg w4 neg d w4 w4 neg d w4 w4 d w4 w4 neg d w4 w4 d w4 neg w4 d w4 w4 d w4 neg w4 d w4 neg w4 neg d  w4 w4 neg d w4 neg w4 neg d w4 neg w4 d w4 w4 d cl f} def
/m49 {mp x w2 sub w3 add y w2 sub w3 add m  0 w3 neg d w3 0 d 0 w3 d w3 0 d 0 w3 d w3 neg 0 d 0 w3 d w3 neg 0 d 0 w3 neg d w3 neg 0 d 0 w3 neg d w3 0 d 0 w3 d w3 0 d 0 w3 neg d w3 neg 0 d cl f } def
/m2 {mp x y w2 sub m 0 w d x w2 sub y m w 0 d s} def
/m5 {mp x w2 sub y w2 sub m w w d x w2 sub y w2 add m w w neg d s} def
%%IncludeResource: ProcSet (FontSetInit)
%%IncludeResource: font Times-Roman
%%IncludeResource: font Times-Italic
%%IncludeResource: font Times-Bold
%%IncludeResource: font Times-BoldItalic
%%IncludeResource: font Helvetica
%%IncludeResource: font Helvetica-Oblique
%%IncludeResource: font Helvetica-Bold
%%IncludeResource: font Helvetica-BoldOblique
%%IncludeResource: font Courier
%%IncludeResource: font Courier-Oblique
%%IncludeResource: font Courier-Bold
%%IncludeResource: font Courier-BoldOblique
%%IncludeResource: font Symbol
%%IncludeResource: font ZapfDingbats
/reEncode {exch findfont dup length dict begin {1 index /FID eq  {pop pop} {def} ifelse } forall /Encoding exch def currentdict end dup /FontName get exch definefont pop } def [/Times-Bold /Times-Italic /Times-BoldItalic /Helvetica /Helvetica-Oblique
 /Helvetica-Bold /Helvetica-BoldOblique /Courier /Courier-Oblique /Courier-Bold /Courier-BoldOblique /Times-Roman /AvantGarde-Book /AvantGarde-BookOblique /AvantGarde-Demi /AvantGarde-DemiOblique /Bookman-Demi /Bookman-DemiItalic /Bookman-Light
 /Bookman-LightItalic /Helvetica-Narrow /Helvetica-Narrow-Bold /Helvetica-Narrow-BoldOblique /Helvetica-Narrow-Oblique /NewCenturySchlbk-Roman /NewCenturySchlbk-Bold /NewCenturySchlbk-BoldItalic /NewCenturySchlbk-Italic /Palatino-Bold
 /Palatino-BoldItalic /Palatino-Italic /Palatino-Roman ] {ISOLatin1Encoding reEncode } forall
%%EndProlog
%%BeginSetup
%%EndSetup
newpath  gsave  .25 .25 scale  gsave  0 0 t black[  ] 0 sd 3 lw 1 1 1 c 2268 1538 0 0 bf black 1 1 1 c 1814 1230 340 231 bf black 1814 1230 340 231 bl 1 1 1 c 1814 1230 340 231 bf black 1814 1230 340 231 bl 340 231 m 1814 X s 340 268 m -37 Y s 401
 249 m -18 Y s 461 249 m -18 Y s 522 249 m -18 Y s 582 268 m -37 Y s 643 249 m -18 Y s 703 249 m -18 Y s 763 249 m -18 Y s 824 268 m -37 Y s 884 249 m -18 Y s 945 249 m -18 Y s 1005 249 m -18 Y s 1066 268 m -37 Y s 1126 249 m -18 Y s 1187 249 m -18 Y
 s 1247 249 m -18 Y s 1308 268 m -37 Y s 1368 249 m -18 Y s 1429 249 m -18 Y s 1489 249 m -18 Y s 1550 268 m -37 Y s 1610 249 m -18 Y s 1671 249 m -18 Y s 1731 249 m -18 Y s 1791 268 m -37 Y s 1852 249 m -18 Y s 1912 249 m -18 Y s 1973 249 m -18 Y s
 2033 268 m -37 Y s 2033 268 m -37 Y s 2094 249 m -18 Y s
 gsave  2268 1538 0 0 C 319.305 162.911 t 0 r /Helvetica findfont 71.6807 sf 0 0 m (0) show NC gr 
 gsave  2268 1538 0 0 C 540.863 162.911 t 0 r /Helvetica findfont 71.6807 sf 0 0 m (20) show NC gr 
 gsave  2268 1538 0 0 C 781.971 162.911 t 0 r /Helvetica findfont 71.6807 sf 0 0 m (40) show NC gr 
 gsave  2268 1538 0 0 C 1026.34 162.911 t 0 r /Helvetica findfont 71.6807 sf 0 0 m (60) show NC gr 
 gsave  2268 1538 0 0 C 1267.45 162.911 t 0 r /Helvetica findfont 71.6807 sf 0 0 m (80) show NC gr 
 gsave  2268 1538 0 0 C 1489 162.911 t 0 r /Helvetica findfont 71.6807 sf 0 0 m (100) show NC gr 
 gsave  2268 1538 0 0 C 1730.11 162.911 t 0 r /Helvetica findfont 71.6807 sf 0 0 m (120) show NC gr 
 gsave  2268 1538 0 0 C 1974.48 162.911 t 0 r /Helvetica findfont 71.6807 sf 0 0 m (140) show NC gr 
 gsave  2268 1538 0 0 C 1987.51 117.296 t 0 r /Helvetica findfont 48.8732 sf 0 0 m (rec,corr) show NC gr 
 gsave  2268 1538 0 0 C 1987.51 48.8732 t 0 r /Helvetica findfont 48.8732 sf 0 0 m (ch) show NC gr 
 gsave  2268 1538 0 0 C 1928.86 71.6807 t 0 r /Helvetica-Oblique findfont 71.6807 sf 0 0 m (N) show NC gr  340 1461 m 1814 X s 340 1424 m 37 Y s 401 1443 m 18 Y s 461 1443 m 18 Y s 522 1443 m 18 Y s 582 1424 m 37 Y s 643 1443 m 18 Y s 703 1443 m 18 Y
 s 763 1443 m 18 Y s 824 1424 m 37 Y s 884 1443 m 18 Y s 945 1443 m 18 Y s 1005 1443 m 18 Y s 1066 1424 m 37 Y s 1126 1443 m 18 Y s 1187 1443 m 18 Y s 1247 1443 m 18 Y s 1308 1424 m 37 Y s 1368 1443 m 18 Y s 1429 1443 m 18 Y s 1489 1443 m 18 Y s 1550
 1424 m 37 Y s 1610 1443 m 18 Y s 1671 1443 m 18 Y s 1731 1443 m 18 Y s 1791 1424 m 37 Y s 1852 1443 m 18 Y s 1912 1443 m 18 Y s 1973 1443 m 18 Y s 2033 1424 m 37 Y s 2033 1424 m 37 Y s 2094 1443 m 18 Y s 340 231 m 1230 Y s 395 504 m -55 X s 367 572
 m -27 X s 367 641 m -27 X s 367 709 m -27 X s 367 777 m -27 X s 395 846 m -55 X s 367 914 m -27 X s 367 983 m -27 X s 367 1051 m -27 X s 367 1119 m -27 X s 395 1188 m -55 X s 395 504 m -55 X s 367 436 m -27 X s 367 367 m -27 X s 367 299 m -27 X s
 367 231 m -27 X s 395 1188 m -55 X s 367 1256 m -27 X s 367 1324 m -27 X s 367 1393 m -27 X s 367 1461 m -27 X s
 gsave  2268 1538 0 0 C 286.723 478.957 t 0 r /Helvetica findfont 71.6807 sf 0 0 m (0) show NC gr 
 gsave  2268 1538 0 0 C 237.85 821.07 t 0 r /Helvetica findfont 71.6807 sf 0 0 m (0.1) show NC gr 
 gsave  2268 1538 0 0 C 228.075 1163.18 t 0 r /Helvetica findfont 71.6807 sf 0 0 m (0.2) show NC gr 
 gsave  2268 1538 0 0 C 172.685 1436.87 t 90 r /Helvetica findfont 48.8732 sf 0 0 m (2) show NC gr 
 gsave  2268 1538 0 0 C 149.878 1391.26 t 90 r /Helvetica-Oblique findfont 71.6807 sf 0 0 m (v) show NC gr  2154 231 m 1230 Y s 2100 504 m 54 X s 2127 572 m 27 X s 2127 641 m 27 X s 2127 709 m 27 X s 2127 777 m 27 X s 2100 846 m 54 X s 2127 914 m 27
 X s 2127 983 m 27 X s 2127 1051 m 27 X s 2127 1119 m 27 X s 2100 1188 m 54 X s 2100 504 m 54 X s 2127 436 m 27 X s 2127 367 m 27 X s 2127 299 m 27 X s 2127 231 m 27 X s 2100 1188 m 54 X s 2127 1256 m 27 X s 2127 1324 m 27 X s 2127 1393 m 27 X s 2127
 1461 m 27 X s[ 20 20] 0 sd 340 504 m 1814 X s
 gsave  2268 1538 0 0 C 430.084 1339.13 t 0 r /Helvetica-BoldOblique findfont 71.6807 sf 0 0 m (ATLAS) show NC gr 
 gsave  2268 1538 0 0 C 755.906 1339.13 t 0 r /Helvetica findfont 71.6807 sf 0 0 m (Internal) show NC gr 
 gsave  2268 1538 0 0 C 1166.44 1277.22 t 0 r /Helvetica findfont 48.8732 sf 0 0 m (\2551) show NC gr 
 gsave  2268 1538 0 0 C 615.802 1241.38 t 0 r /Helvetica findfont 71.6807 sf 0 0 m (=13 TeV, 15.8 pb) show NC gr 
 gsave  2268 1538 0 0 C 576.704 1241.38 t 0 r /Helvetica-Oblique findfont 71.6807 sf 0 0 m (s) show NC gr [  ] 0 sd 6 lw 551 1280 m 9 -42 d s 3 lw 560 1238 m 7 62 d s 567 1300 m 49 X s
 gsave  2268 1538 0 0 C 514.798 1241.38 t 0 r /Helvetica findfont 71.6807 sf 0 0 m ( ) show NC gr 
 gsave  2268 1538 0 0 C 430.084 1241.38 t 0 r /Helvetica-Oblique findfont 71.6807 sf 0 0 m (pp) show NC gr 
 gsave  2268 1538 0 0 C 1778.98 1339.13 t 0 r /Helvetica findfont 71.6807 sf 0 0 m (<4 GeV) show NC gr 
 gsave  2268 1538 0 0 C 1746.4 1374.97 t 0 r /Helvetica-Oblique findfont 48.8732 sf 0 0 m (b) show NC gr 
 gsave  2268 1538 0 0 C 1733.37 1374.97 t 0 r /Helvetica findfont 48.8732 sf 0 0 m (,) show NC gr 
 gsave  2268 1538 0 0 C 1704.05 1374.97 t 0 r /Helvetica-Oblique findfont 48.8732 sf 0 0 m (a) show NC gr 
 gsave  2268 1538 0 0 C 1704.05 1300.03 t 0 r /Helvetica findfont 48.8732 sf 0 0 m (T) show NC gr 
 gsave  2268 1538 0 0 C 1658.43 1339.13 t 0 r /Helvetica-Oblique findfont 71.6807 sf 0 0 m (p) show NC gr 
 gsave  2268 1538 0 0 C 1518.33 1339.13 t 0 r /Helvetica findfont 71.6807 sf 0 0 m (0.5<) show NC gr 
 gsave  2268 1538 0 0 C 430.084 1094.76 t 0 r /Helvetica findfont 68.4225 sf 0 0 m (h\255h) show NC gr 
 gsave  2268 1538 0 0 C 430.084 1006.79 t 0 r /Helvetica findfont 68.4225 sf 0 0 m (h\255h \(w/ rejection\)) show NC gr 
 gsave  2268 1538 0 0 C 430.084 922.074 t 0 r /Helvetica findfont 68.4225 sf 0 0 m (h\255jet constituents) show NC gr 
 gsave  2268 1538 0 0 C 944.882 1094.76 t 0 r /Helvetica findfont 68.4225 sf 0 0 m (:) show NC gr 
 gsave  2268 1538 0 0 C 944.882 1006.79 t 0 r /Helvetica findfont 68.4225 sf 0 0 m (:) show NC gr 
 gsave  2268 1538 0 0 C 944.882 922.074 t 0 r /Helvetica findfont 68.4225 sf 0 0 m (:) show NC gr 
 gsave  2268 1538 0 0 C 615.802 342.112 t 0 r /Helvetica findfont 61.9061 sf 0 0 m (: [40\255150\)) show NC gr 
 gsave  2268 1538 0 0 C 482.216 377.953 t 0 r /Helvetica findfont 39.0986 sf 0 0 m (rec,corr) show NC gr 
 gsave  2268 1538 0 0 C 482.216 322.563 t 0 r /Helvetica findfont 39.0986 sf 0 0 m (ch) show NC gr 
 gsave  2268 1538 0 0 C 430.084 342.112 t 0 r /Helvetica-Oblique findfont 61.9061 sf 0 0 m (N) show NC gr  0.6 1 0.6 c 45 lw 981 732 m s 981 732 m cl s 981 732 m s 981 732 m cl s 981 732 m 15 Y s 981 747 m cl s 981 732 m -15 Y s 981 717 m cl s 1102
 719 m s 1102 719 m cl s 1102 719 m s 1102 719 m cl s 1102 719 m 15 Y s 1102 734 m cl s 1102 719 m -15 Y s 1102 704 m cl s 1223 740 m s 1223 740 m cl s 1223 740 m s 1223 740 m cl s 1223 740 m 7 Y s 1223 747 m cl s 1223 740 m -7 Y s 1223 733 m cl s
 1344 737 m s 1344 737 m cl s 1344 737 m s 1344 737 m cl s 1344 737 m 7 Y s 1344 744 m cl s 1344 737 m -7 Y s 1344 730 m cl s 1465 732 m s 1465 732 m cl s 1465 732 m s 1465 732 m cl s 1465 732 m 6 Y s 1465 738 m cl s 1465 732 m -7 Y s 1465 725 m cl s
 1586 729 m s 1586 729 m cl s 1586 729 m s 1586 729 m cl s 1586 729 m 6 Y s 1586 735 m cl s 1586 729 m -7 Y s 1586 722 m cl s 1707 723 m s 1707 723 m cl s 1707 723 m s 1707 723 m cl s 1707 723 m 7 Y s 1707 730 m cl s 1707 723 m -7 Y s 1707 716 m cl s
 1828 718 m s 1828 718 m cl s 1828 718 m s 1828 718 m cl s 1828 718 m 7 Y s 1828 725 m cl s 1828 718 m -7 Y s 1828 711 m cl s 1949 715 m s 1949 715 m cl s 1949 715 m s 1949 715 m cl s 1949 715 m 8 Y s 1949 723 m cl s 1949 715 m -7 Y s 1949 708 m cl s
 2070 717 m s 2070 717 m cl s 2070 717 m s 2070 717 m cl s 2070 717 m 9 Y s 2070 726 m cl s 2070 717 m -8 Y s 2070 709 m cl s 618 726 m s 618 726 m cl s 618 726 m s 618 726 m cl s 618 726 m 7 Y s 618 733 m cl s 618 726 m -6 Y s 618 720 m cl s 1 1 1 c
 0.6 1 0.6 c 3 lw /w 3 def /w2 {w 2 div} def /w3 {w 3 div} def 981 732 1102 719 1223 740 1344 737 1465 732 1586 729 1707 723 1828 718 1949 715 2070 717 618 726 11 { m26} R 45 lw 0 0.8 0 c 3 lw 981 745 m 38 Y s 981 783 m cl s 981 719 m -38 Y s 981 681
 m cl s 1102 732 m 25 Y s 1102 757 m cl s 1102 706 m -25 Y s 1102 681 m cl s 1223 753 m 16 Y s 1223 769 m cl s 1223 727 m -16 Y s 1223 711 m cl s 1344 750 m 9 Y s 1344 759 m cl s 1344 724 m -8 Y s 1344 716 m cl s 1465 745 m 3 Y s 1465 748 m cl s 1465
 719 m -4 Y s 1465 715 m cl s 1586 742 m s 1586 742 m cl s 1586 716 m -1 Y s 1586 715 m cl s 1949 729 m 2 Y s 1949 731 m cl s 1949 702 m -2 Y s 1949 700 m cl s 2070 730 m 6 Y s 2070 736 m cl s 2070 704 m -5 Y s 2070 699 m cl s 618 739 m 4 Y s 618 743
 m cl s 618 713 m -3 Y s 618 710 m cl s 1 1 1 c 0 0.8 0 c /w 31 def /w2 {w 2 div} def /w3 {w 3 div} def 981 732 1102 719 1223 740 1344 737 1465 732 1586 729 1707 723 1828 718 1949 715 2070 717 618 726 11 { m26} R /w 36 def /w2 {w 2 div} def /w3 {w 3
 div} def 1701 1027 m26 black
 gsave  2268 1538 0 0 C 1736.63 1006.79 t 0 r /Helvetica findfont 68.4225 sf 0 0 m (WithJetEvts) show NC gr  0.6 0.6 1 c 45 lw 1017 714 m s 1017 714 m cl s 1017 714 m s 1017 714 m cl s 1017 714 m 4 Y s 1017 718 m cl s 1017 714 m -3 Y s 1017 711 m cl
 s 1138 716 m s 1138 716 m cl s 1138 716 m s 1138 716 m cl s 1138 716 m 3 Y s 1138 719 m cl s 1138 716 m -4 Y s 1138 712 m cl s 1259 718 m s 1259 718 m cl s 1259 718 m s 1259 718 m cl s 1259 718 m 3 Y s 1259 721 m cl s 1259 718 m -4 Y s 1259 714 m cl
 s 1380 719 m s 1380 719 m cl s 1380 719 m s 1380 719 m cl s 1380 719 m 3 Y s 1380 722 m cl s 1380 719 m -3 Y s 1380 716 m cl s 1501 718 m s 1501 718 m cl s 1501 718 m s 1501 718 m cl s 1501 718 m 2 Y s 1501 720 m cl s 1501 718 m -3 Y s 1501 715 m cl
 s 1622 717 m s 1622 717 m cl s 1622 717 m s 1622 717 m cl s 1622 717 m 3 Y s 1622 720 m cl s 1622 717 m -2 Y s 1622 715 m cl s 1743 714 m s 1743 714 m cl s 1743 714 m s 1743 714 m cl s 1743 714 m 3 Y s 1743 717 m cl s 1743 714 m -3 Y s 1743 711 m cl
 s 1864 713 m s 1864 713 m cl s 1864 713 m s 1864 713 m cl s 1864 713 m 3 Y s 1864 716 m cl s 1864 713 m -4 Y s 1864 709 m cl s 1985 711 m s 1985 711 m cl s 1985 711 m s 1985 711 m cl s 1985 711 m 5 Y s 1985 716 m cl s 1985 711 m -5 Y s 1985 706 m cl
 s 2106 711 m s 2106 711 m cl s 2106 711 m s 2106 711 m cl s 2106 711 m 6 Y s 2106 717 m cl s 2106 711 m -7 Y s 2106 704 m cl s 655 716 m s 655 716 m cl s 655 716 m s 655 716 m cl s 655 716 m 2 Y s 655 718 m cl s 655 716 m -3 Y s 655 713 m cl s 1 1 1
 c 0.6 0.6 1 c 3 lw /w 3 def /w2 {w 2 div} def /w3 {w 3 div} def 1017 714 1138 716 1259 718 1380 719 1501 718 1622 717 1743 714 1864 713 1985 711 2106 711 655 716 11 { m24} R 45 lw 0 0 1 c 3 lw 1 1 1 c 0 0 1 c /w 31 def /w2 {w 2 div} def /w3 {w 3
 div} def 1017 714 1138 716 1259 718 1380 719 1501 718 1622 717 1743 714 1864 713 1985 711 2106 711 655 716 11 { m24} R /w 33 def /w2 {w 2 div} def /w3 {w 3 div} def 1011 1027 m24 black
 gsave  2268 1538 0 0 C 1045.89 1006.79 t 0 r /Helvetica findfont 68.4225 sf 0 0 m (AllEvts) show NC gr  1 0.6 0.6 c 45 lw 993 715 m s 993 715 m cl s 993 715 m s 993 715 m cl s 993 715 m 4 Y s 993 719 m cl s 993 715 m -4 Y s 993 711 m cl s 1114 716 m
 s 1114 716 m cl s 1114 716 m s 1114 716 m cl s 1114 716 m 4 Y s 1114 720 m cl s 1114 716 m -3 Y s 1114 713 m cl s 1235 718 m s 1235 718 m cl s 1235 718 m s 1235 718 m cl s 1235 718 m 3 Y s 1235 721 m cl s 1235 718 m -3 Y s 1235 715 m cl s 1356 719 m
 s 1356 719 m cl s 1356 719 m s 1356 719 m cl s 1356 719 m 3 Y s 1356 722 m cl s 1356 719 m -3 Y s 1356 716 m cl s 1477 718 m s 1477 718 m cl s 1477 718 m s 1477 718 m cl s 1477 718 m 3 Y s 1477 721 m cl s 1477 718 m -2 Y s 1477 716 m cl s 1598 718 m
 s 1598 718 m cl s 1598 718 m s 1598 718 m cl s 1598 718 m 3 Y s 1598 721 m cl s 1598 718 m -2 Y s 1598 716 m cl s 1719 715 m s 1719 715 m cl s 1719 715 m s 1719 715 m cl s 1719 715 m 3 Y s 1719 718 m cl s 1719 715 m -3 Y s 1719 712 m cl s 1840 714 m
 s 1840 714 m cl s 1840 714 m s 1840 714 m cl s 1840 714 m 3 Y s 1840 717 m cl s 1840 714 m -4 Y s 1840 710 m cl s 1961 712 m s 1961 712 m cl s 1961 712 m s 1961 712 m cl s 1961 712 m 5 Y s 1961 717 m cl s 1961 712 m -6 Y s 1961 706 m cl s 2082 711 m
 s 2082 711 m cl s 2082 711 m s 2082 711 m cl s 2082 711 m 7 Y s 2082 718 m cl s 2082 711 m -6 Y s 2082 705 m cl s 630 716 m s 630 716 m cl s 630 716 m s 630 716 m cl s 630 716 m 3 Y s 630 719 m cl s 630 716 m -3 Y s 630 713 m cl s 1 1 1 c 1 0.6 0.6
 c 3 lw /w 3 def /w2 {w 2 div} def /w3 {w 3 div} def 993 715 1114 716 1235 718 1356 719 1477 718 1598 718 1719 715 1840 714 1961 712 2082 711 630 716 11 { m25} R 45 lw 1 0 0 c 3 lw 1 1 1 c 1 0 0 c /w 31 def /w2 {w 2 div} def /w3 {w 3 div} def 993 715
 1114 716 1235 718 1356 719 1477 718 1598 718 1719 715 1840 714 1961 712 2082 711 630 716 11 { m25} R /w 33 def /w2 {w 2 div} def /w3 {w 3 div} def 1311 1027 m25 black
 gsave  2268 1538 0 0 C 1345.64 1006.79 t 0 r /Helvetica findfont 68.4225 sf 0 0 m (NoJetEvts) show NC gr  0.6 0.6 0.6 c 45 lw 1005 718 m s 1005 718 m cl s 1005 718 m s 1005 718 m cl s 1005 718 m 3 Y s 1005 721 m cl s 1005 718 m -4 Y s 1005 714 m cl
 s 1126 720 m s 1126 720 m cl s 1126 720 m s 1126 720 m cl s 1126 720 m 3 Y s 1126 723 m cl s 1126 720 m -3 Y s 1126 717 m cl s 1247 722 m s 1247 722 m cl s 1247 722 m s 1247 722 m cl s 1247 722 m 3 Y s 1247 725 m cl s 1247 722 m -3 Y s 1247 719 m cl
 s 1368 723 m s 1368 723 m cl s 1368 723 m s 1368 723 m cl s 1368 723 m 2 Y s 1368 725 m cl s 1368 723 m -3 Y s 1368 720 m cl s 1489 725 m s 1489 725 m cl s 1489 725 m s 1489 725 m cl s 1489 725 m 3 Y s 1489 728 m cl s 1489 725 m -2 Y s 1489 723 m cl
 s 1610 723 m s 1610 723 m cl s 1610 723 m s 1610 723 m cl s 1610 723 m 3 Y s 1610 726 m cl s 1610 723 m -2 Y s 1610 721 m cl s 1731 715 m s 1731 715 m cl s 1731 715 m s 1731 715 m cl s 1731 715 m 1 Y s 1731 716 m cl s 1731 715 m -2 Y s 1731 713 m cl
 s 1852 723 m s 1852 723 m cl s 1852 723 m s 1852 723 m cl s 1852 723 m 3 Y s 1852 726 m cl s 1852 723 m -2 Y s 1852 721 m cl s 1973 725 m s 1973 725 m cl s 1973 725 m s 1973 725 m cl s 1973 725 m 3 Y s 1973 728 m cl s 1973 725 m -3 Y s 1973 722 m cl
 s 2094 717 m s 2094 717 m cl s 2094 717 m s 2094 717 m cl s 2094 717 m 5 Y s 2094 722 m cl s 2094 717 m -4 Y s 2094 713 m cl s 643 719 m s 643 719 m cl s 643 719 m s 643 719 m cl s 643 719 m 3 Y s 643 722 m cl s 643 719 m -3 Y s 643 716 m cl s 1 1 1
 c 0.6 0.6 0.6 c 3 lw /w 3 def /w2 {w 2 div} def /w3 {w 3 div} def 1005 718 1126 720 1247 722 1368 723 1489 725 1610 723 1731 715 1852 723 1973 725 2094 717 643 719 11 { m20} R 45 lw black 3 lw 2094 730 m 6 Y s 2094 736 m cl s 2094 704 m -5 Y s 2094
 699 m cl s 1 1 1 c black /w 31 def /w2 {w 2 div} def /w3 {w 3 div} def 1005 718 1126 720 1247 722 1368 723 1489 725 1610 723 1731 715 1852 723 1973 725 2094 717 643 719 11 { m20} R /w 33 def /w2 {w 2 div} def /w3 {w 3 div} def 1011 1113 m20 1 0.8
 0.6 c 45 lw 1005 510 m s 1005 510 m cl s 1005 510 m s 1005 510 m cl s 1005 510 m 38 Y s 1005 548 m cl s 1005 510 m -38 Y s 1005 472 m cl s 1126 508 m s 1126 508 m cl s 1126 508 m s 1126 508 m cl s 1126 508 m 38 Y s 1126 546 m cl s 1126 508 m -38 Y s
 1126 470 m cl s 1247 490 m s 1247 490 m cl s 1247 490 m s 1247 490 m cl s 1247 490 m 37 Y s 1247 527 m cl s 1247 490 m -38 Y s 1247 452 m cl s 1368 338 m s 1368 338 m cl s 1368 338 m s 1368 338 m cl s 1368 338 m 38 Y s 1368 376 m cl s 1368 338 m -37
 Y s 1368 301 m cl s 1489 562 m s 1489 562 m cl s 1489 562 m s 1489 562 m cl s 1489 562 m 38 Y s 1489 600 m cl s 1489 562 m -37 Y s 1489 525 m cl s 1610 583 m s 1610 583 m cl s 1610 583 m s 1610 583 m cl s 1610 583 m 37 Y s 1610 620 m cl s 1610 583 m
 -38 Y s 1610 545 m cl s 1731 435 m s 1731 435 m cl s 1731 435 m s 1731 435 m cl s 1731 435 m 38 Y s 1731 473 m cl s 1731 435 m -37 Y s 1731 398 m cl s 643 489 m s 643 489 m cl s 643 489 m s 643 489 m cl s 643 489 m 38 Y s 643 527 m cl s 643 489 m
 -38 Y s 643 451 m cl s 1 1 1 c 1 0.8 0.6 c 3 lw /w 3 def /w2 {w 2 div} def /w3 {w 3 div} def 1005 510 1126 508 1247 490 1368 338 1489 562 1610 583 1731 435 643 489 8 { m28} R 45 lw 1 0.6 0.2 c 3 lw 1005 523 m 67 Y s 1005 590 m cl s 1005 497 m -67 Y
 s 1005 430 m cl s 1126 521 m 68 Y s 1126 589 m cl s 1126 495 m -68 Y s 1126 427 m cl s 1247 503 m 51 Y s 1247 554 m cl s 1247 477 m -52 Y s 1247 425 m cl s 1368 351 m 87 Y s 1368 438 m cl s 1368 325 m -87 Y s 1368 238 m cl s 1489 575 m 85 Y s 1489
 660 m cl s 1489 549 m -85 Y s 1489 464 m cl s 1610 596 m 97 Y s 1610 693 m cl s 1610 570 m -98 Y s 1610 472 m cl s 1731 449 m 75 Y s 1731 524 m cl s 1731 422 m -75 Y s 1731 347 m cl s 643 502 m 29 Y s 643 531 m cl s 643 476 m -29 Y s 643 447 m cl s
 1 1 1 c 1 0.6 0.2 c /w 31 def /w2 {w 2 div} def /w3 {w 3 div} def 1005 510 1126 508 1247 490 1368 338 1489 562 1610 583 1731 435 643 489 8 { m28} R /w 39 def /w2 {w 2 div} def /w3 {w 3 div} def 1011 941 m28
 gr  gr showpage
end
%%EOF
