%!PS-Adobe-2.0 EPSF-2.0
%%BoundingBox:  0 0 567 384
%%Title: figs/can_pjxWithScale_overlay_h2_PFlowJets_calibPT_PTAbvN_cent10_30.eps: can_pjxWithScale_overlay_h2_PFlowJets_calibPT_PTAbvN_cent10_30
%%Creator: ROOT Version 6.20/06
%%CreationDate: Tue Feb 21 21:34:01 2023
%%DocumentNeededResources: ProcSet (FontSetInit)
%%EndComments
%%BeginProlog
80 dict begin
/s {stroke} def /l {lineto} def /m {moveto} def /t {translate} def
/r {rotate} def /rl {roll}  def /R {repeat} def
/d {rlineto} def /rm {rmoveto} def /gr {grestore} def /f {eofill} def
/c {setrgbcolor} def /black {0 setgray} def /sd {setdash} def
/cl {closepath} def /sf {scalefont setfont} def /lw {setlinewidth} def
/box {m dup 0 exch d exch 0 d 0 exch neg d cl} def
/NC{systemdict begin initclip end}def/C{NC box clip newpath}def
/bl {box s} def /bf {gsave box gsave f grestore 1 lw [] 0 sd s grestore} def /Y { 0 exch d} def /X { 0 d} def 
/K {{pop pop 0 moveto} exch kshow} bind def
/ita {/ang 15 def gsave [1 0 ang dup sin exch cos div 1 0 0] concat} def 
/mp {newpath /y exch def /x exch def} def
/side {[w .77 mul w .23 mul] .385 w mul sd w 0 l currentpoint t -144 r} def
/mr {mp x y w2 0 360 arc} def /m24 {mr s} def /m20 {mr f} def
/mb {mp x y w2 add m w2 neg 0 d 0 w neg d w 0 d 0 w d cl} def
/mt {mp x y w2 add m w2 neg w neg d w 0 d cl} def
/w4 {w 4 div} def
/w6 {w 6 div} def
/w8 {w 8 div} def
/m21 {mb f} def /m25 {mb s} def /m22 {mt f} def /m26{mt s} def
/m23 {mp x y w2 sub m w2 w d w neg 0 d cl f} def
/m27 {mp x y w2 add m w3 neg w2 neg d w3 w2 neg d w3 w2 d cl s} def
/m28 {mp x w2 sub y w2 sub w3 add m w3 0 d  0 w3 neg d w3 0 d 0 w3 d w3 0 d  0 w3 d w3 neg 0 d 0 w3 d w3 neg 0 d 0 w3 neg d w3 neg 0 d cl s } def
/m29 {mp gsave x w2 sub y w2 add w3 sub m currentpoint t 4 {side} repeat cl fill gr} def
/m30 {mp gsave x w2 sub y w2 add w3 sub m currentpoint t 4 {side} repeat cl s gr} def
/m31 {mp x y w2 sub m 0 w d x w2 sub y m w 0 d x w2 sub y w2 add m w w neg d x w2 sub y w2 sub m w w d s} def
/m32 {mp x y w2 sub m w2 w d w neg 0 d cl s} def
/m33 {mp x y w2 add m w3 neg w2 neg d w3 w2 neg d w3 w2 d cl f} def
/m34 {mp x w2 sub y w2 sub w3 add m w3 0 d  0 w3 neg d w3 0 d 0 w3 d w3 0 d  0 w3 d w3 neg 0 d 0 w3 d w3 neg 0 d 0 w3 neg d w3 neg 0 d cl f } def
/m35 {mp x y w2 add m w2 neg w2 neg d w2 w2 neg d w2 w2 d w2 neg w2 d x y w2 sub m 0 w d x w2 sub y m w 0 d s} def
/m36 {mb x w2 sub y w2 add m w w neg d x w2 sub y w2 sub m w w d s} def
/m37 {mp x y m w4 neg w2 d w4 neg w2 neg d w2 0 d  w4 neg w2 neg d w2 0 d w4 neg w2 d w2 0 d w4 neg w2 d w4 neg w2 neg d cl s} def
/m38 {mp x w4 sub y w2 add m w4 neg w4 neg d 0 w2 neg d w4 w4 neg d w2 0 d w4 w4 d 0 w2 d w4 neg w4 d w2 neg 0 d x y w2 sub m 0 w d x w2 sub y m w 0 d cl s} def
/m39 {mp x y m w4 neg w2 d w4 neg w2 neg d w2 0 d  w4 neg w2 neg d w2 0 d w4 neg w2 d w2 0 d w4 neg w2 d w4 neg w2 neg d cl f} def
/m40 {mp x y m w4 w2 d w4 w4 neg d w2 neg w4 neg d w2 w4 neg d w4 neg w4 neg d w4 neg w2 d w4 neg w2 neg d w4 neg w4 d w2 w4 d w2 neg w4 d w4 w4 d w4 w2 neg d cl s} def
/m41 {mp x y m w4 w2 d w4 w4 neg d w2 neg w4 neg d w2 w4 neg d w4 neg w4 neg d w4 neg w2 d w4 neg w2 neg d w4 neg w4 d w2 w4 d w2 neg w4 d w4 w4 d w4 w2 neg d cl f} def
/m42 {mp x y w2 add m w8 neg w2 -3 4 div mul d w2 -3 4 div mul w8 neg d w2 3 4 div mul w8 neg d w8 w2 -3 4 div mul d w8 w2 3 4 div mul d w2 3 4 div mul w8 d w2 -3 4 div mul w8 d w8 neg w2 3 4 div mul d cl s} def
/m43 {mp x y w2 add m w8 neg w2 -3 4 div mul d w2 -3 4 div mul w8 neg d w2 3 4 div mul w8 neg d w8 w2 -3 4 div mul d w8 w2 3 4 div mul d w2 3 4 div mul w8 d w2 -3 4 div mul w8 d w8 neg w2 3 4 div mul d cl f} def
/m44 {mp x y m w6 neg w2 d w2 2 3 div mul 0 d w6 neg w2 neg d w2 w6 d 0 w2 -2 3 div mul d w2 neg w6 d w6 w2 neg d w2 -2 3 div mul 0 d w6 w2 d w2 neg w6 neg d 0 w2 2 3 div mul d w2 w6 neg d cl s} def
/m45 {mp x y m w6 neg w2 d w2 2 3 div mul 0 d w6 neg w2 neg d w2 w6 d 0 w2 -2 3 div mul d w2 neg w6 d w6 w2 neg d w2 -2 3 div mul 0 d w6 w2 d w2 neg w6 neg d 0 w2 2 3 div mul d w2 w6 neg d cl f} def
/m46 {mp x y w4 add m w4 neg w4 d w4 neg w4 neg d  w4 w4 neg d w4 neg w4 neg d w4 w4 neg d w4 w4 d w4 w4 neg d w4 w4 d w4 neg w4 d w4 w4 d w4 neg w4 d w4 neg w4 neg d cl s} def
/m47 {mp x y w4 add m w4 neg w4 d w4 neg w4 neg d w4 w4 neg d w4 neg w4 neg d  w4 w4 neg d w4 w4 d w4 w4 neg d w4 w4 d w4 neg w4 d w4 w4 d w4 neg w4 d w4 neg w4 neg d cl f} def
/m48 {mp x y w4 add m w4 neg w4 d w4 neg w4 neg d w4 w4 neg d  w4 neg w4 neg d w4 w4 neg d w4 w4 d w4 w4 neg d w4 w4 d w4 neg w4 d w4 w4 d w4 neg w4 d w4 neg w4 neg d  w4 w4 neg d w4 neg w4 neg d w4 neg w4 d w4 w4 d cl f} def
/m49 {mp x w2 sub w3 add y w2 sub w3 add m  0 w3 neg d w3 0 d 0 w3 d w3 0 d 0 w3 d w3 neg 0 d 0 w3 d w3 neg 0 d 0 w3 neg d w3 neg 0 d 0 w3 neg d w3 0 d 0 w3 d w3 0 d 0 w3 neg d w3 neg 0 d cl f } def
/m2 {mp x y w2 sub m 0 w d x w2 sub y m w 0 d s} def
/m5 {mp x w2 sub y w2 sub m w w d x w2 sub y w2 add m w w neg d s} def
%%IncludeResource: ProcSet (FontSetInit)
%%IncludeResource: font Times-Roman
%%IncludeResource: font Times-Italic
%%IncludeResource: font Times-Bold
%%IncludeResource: font Times-BoldItalic
%%IncludeResource: font Helvetica
%%IncludeResource: font Helvetica-Oblique
%%IncludeResource: font Helvetica-Bold
%%IncludeResource: font Helvetica-BoldOblique
%%IncludeResource: font Courier
%%IncludeResource: font Courier-Oblique
%%IncludeResource: font Courier-Bold
%%IncludeResource: font Courier-BoldOblique
%%IncludeResource: font Symbol
%%IncludeResource: font ZapfDingbats
/reEncode {exch findfont dup length dict begin {1 index /FID eq  {pop pop} {def} ifelse } forall /Encoding exch def currentdict end dup /FontName get exch definefont pop } def [/Times-Bold /Times-Italic /Times-BoldItalic /Helvetica /Helvetica-Oblique
 /Helvetica-Bold /Helvetica-BoldOblique /Courier /Courier-Oblique /Courier-Bold /Courier-BoldOblique /Times-Roman /AvantGarde-Book /AvantGarde-BookOblique /AvantGarde-Demi /AvantGarde-DemiOblique /Bookman-Demi /Bookman-DemiItalic /Bookman-Light
 /Bookman-LightItalic /Helvetica-Narrow /Helvetica-Narrow-Bold /Helvetica-Narrow-BoldOblique /Helvetica-Narrow-Oblique /NewCenturySchlbk-Roman /NewCenturySchlbk-Bold /NewCenturySchlbk-BoldItalic /NewCenturySchlbk-Italic /Palatino-Bold
 /Palatino-BoldItalic /Palatino-Italic /Palatino-Roman ] {ISOLatin1Encoding reEncode } forall
%%EndProlog
%%BeginSetup
%%EndSetup
newpath  gsave  .25 .25 scale  gsave  0 0 t black[  ] 0 sd 3 lw 1 1 1 c 2268 1538 0 0 bf black 1 1 1 c 1814 1230 340 231 bf black 1814 1230 340 231 bl 1 1 1 c 1814 1230 340 231 bf black 1814 1230 340 231 bl 0 0 1 c 6 lw 1 1 1 c black 0 0 1 c 340 231
 m 484 X 791 Y 12 X 38 Y 12 X 24 Y 12 X 30 Y 12 X 14 Y 12 X 12 Y 13 X 18 Y 12 X 3 Y 12 X 9 Y 12 X -3 Y 12 X -1 Y 12 X 9 Y 12 X -3 Y 12 X 4 Y 12 X -14 Y 12 X -2 Y 12 X 4 Y 13 X -4 Y 12 X -3 Y 12 X -5 Y 12 X -6 Y 12 X -9 Y 12 X -8 Y 12 X -17 Y 12 X 5 Y
 12 X -11 Y 12 X -2 Y 12 X -11 Y 25 X -7 Y 12 X -14 Y 12 X -8 Y 12 X -5 Y 12 X -5 Y 12 X -7 Y 12 X -9 Y 12 X -25 Y 12 X 13 Y 13 X -2 Y 12 X -7 Y 12 X -14 Y 12 X -20 Y 12 X 3 Y 12 X 2 Y 12 X -27 Y 12 X -2 Y 12 X -4 Y 12 X -6 Y 12 X 8 Y 13 X -12 Y 12 X
 -11 Y 12 X -22 Y 12 X -6 Y 12 X -5 Y 12 X 20 Y 12 X -19 Y 12 X -12 Y 12 X 13 Y 12 X -14 Y 13 X -20 Y 12 X 16 Y 12 X 4 Y 12 X -23 Y 12 X -12 Y 12 X 11 Y 12 X -18 Y 12 X -13 Y 12 X -13 Y 12 X -48 Y 12 X 32 Y 13 X -35 Y 12 X 64 Y 12 X -4 Y 12 X -71 Y
 12 X 27 Y 12 X -20 Y 12 X 31 Y 12 X -27 Y 12 X 22 Y 12 X -26 Y 12 X 7 Y 13 X -14 Y 12 X 14 Y 12 X -22 Y 12 X -32 Y 12 X -17 Y 12 X 37 Y 12 X -20 Y 12 X -5 Y 12 X 5 Y 12 X -11 Y 13 X -41 Y 12 X 15 Y 12 X 7 Y 12 X -73 Y 12 X 98 Y 12 X -98 Y 12 X 73 Y
 12 X -73 Y 12 X 23 Y 12 X 43 Y 12 X 37 Y 13 X -70 Y 24 X -10 Y 12 X 19 Y 24 X -30 Y 12 X 39 Y 12 X -65 Y 12 X s black 3 lw 340 231 m 1814 X s 340 268 m -37 Y s 401 249 m -18 Y s 461 249 m -18 Y s 522 249 m -18 Y s 582 268 m -37 Y s 643 249 m -18 Y s
 703 249 m -18 Y s 763 249 m -18 Y s 824 268 m -37 Y s 884 249 m -18 Y s 945 249 m -18 Y s 1005 249 m -18 Y s 1066 268 m -37 Y s 1126 249 m -18 Y s 1187 249 m -18 Y s 1247 249 m -18 Y s 1308 268 m -37 Y s 1368 249 m -18 Y s 1429 249 m -18 Y s 1489
 249 m -18 Y s 1550 268 m -37 Y s 1610 249 m -18 Y s 1671 249 m -18 Y s 1731 249 m -18 Y s 1791 268 m -37 Y s 1852 249 m -18 Y s 1912 249 m -18 Y s 1973 249 m -18 Y s 2033 268 m -37 Y s 2033 268 m -37 Y s 2094 249 m -18 Y s
 gsave  2268 1538 0 0 C 319.305 162.911 t 0 r /Helvetica findfont 71.6807 sf 0 0 m (0) show NC gr 
 gsave  2268 1538 0 0 C 540.863 162.911 t 0 r /Helvetica findfont 71.6807 sf 0 0 m (20) show NC gr 
 gsave  2268 1538 0 0 C 781.971 162.911 t 0 r /Helvetica findfont 71.6807 sf 0 0 m (40) show NC gr 
 gsave  2268 1538 0 0 C 1026.34 162.911 t 0 r /Helvetica findfont 71.6807 sf 0 0 m (60) show NC gr 
 gsave  2268 1538 0 0 C 1267.45 162.911 t 0 r /Helvetica findfont 71.6807 sf 0 0 m (80) show NC gr 
 gsave  2268 1538 0 0 C 1489 162.911 t 0 r /Helvetica findfont 71.6807 sf 0 0 m (100) show NC gr 
 gsave  2268 1538 0 0 C 1730.11 162.911 t 0 r /Helvetica findfont 71.6807 sf 0 0 m (120) show NC gr 
 gsave  2268 1538 0 0 C 1974.48 162.911 t 0 r /Helvetica findfont 71.6807 sf 0 0 m (140) show NC gr 
 gsave  2268 1538 0 0 C 2052.67 110.779 t 0 r /Helvetica findfont 48.8732 sf 0 0 m (calib) show NC gr 
 gsave  2268 1538 0 0 C 2052.67 42.3568 t 0 r /Helvetica findfont 48.8732 sf 0 0 m (T) show NC gr 
 gsave  2268 1538 0 0 C 2007.06 81.4553 t 0 r /Helvetica-Oblique findfont 71.6807 sf 0 0 m (p) show NC gr  340 1461 m 1814 X s 340 1424 m 37 Y s 401 1443 m 18 Y s 461 1443 m 18 Y s 522 1443 m 18 Y s 582 1424 m 37 Y s 643 1443 m 18 Y s 703 1443 m 18 Y
 s 763 1443 m 18 Y s 824 1424 m 37 Y s 884 1443 m 18 Y s 945 1443 m 18 Y s 1005 1443 m 18 Y s 1066 1424 m 37 Y s 1126 1443 m 18 Y s 1187 1443 m 18 Y s 1247 1443 m 18 Y s 1308 1424 m 37 Y s 1368 1443 m 18 Y s 1429 1443 m 18 Y s 1489 1443 m 18 Y s 1550
 1424 m 37 Y s 1610 1443 m 18 Y s 1671 1443 m 18 Y s 1731 1443 m 18 Y s 1791 1424 m 37 Y s 1852 1443 m 18 Y s 1912 1443 m 18 Y s 1973 1443 m 18 Y s 2033 1424 m 37 Y s 2033 1424 m 37 Y s 2094 1443 m 18 Y s 340 231 m 1230 Y s 395 231 m -55 X s
 gsave  2268 1538 0 0 C 293.239 231.333 t 0 r /Helvetica findfont 48.8732 sf 0 0 m (5) show NC gr 
 gsave  2268 1538 0 0 C 267.173 231.333 t 0 r /Symbol findfont 48.8732 sf 0 0 m (-) show NC gr 
 gsave  2268 1538 0 0 C 188.976 198.751 t 0 r /Helvetica findfont 71.6807 sf 0 0 m (10) show NC gr  367 311 m -27 X s 367 358 m -27 X s 367 392 m -27 X s 367 418 m -27 X s 367 439 m -27 X s 367 457 m -27 X s 367 472 m -27 X s 367 486 m -27 X s 395
 498 m -55 X s
 gsave  2268 1538 0 0 C 293.239 495.248 t 0 r /Helvetica findfont 48.8732 sf 0 0 m (4) show NC gr 
 gsave  2268 1538 0 0 C 267.173 495.248 t 0 r /Symbol findfont 48.8732 sf 0 0 m (-) show NC gr 
 gsave  2268 1538 0 0 C 188.976 465.924 t 0 r /Helvetica findfont 71.6807 sf 0 0 m (10) show NC gr  367 578 m -27 X s 367 626 m -27 X s 367 659 m -27 X s 367 685 m -27 X s 367 706 m -27 X s 367 724 m -27 X s 367 739 m -27 X s 367 753 m -27 X s 395
 765 m -55 X s
 gsave  2268 1538 0 0 C 293.239 765.68 t 0 r /Helvetica findfont 48.8732 sf 0 0 m (3) show NC gr 
 gsave  2268 1538 0 0 C 267.173 765.68 t 0 r /Symbol findfont 48.8732 sf 0 0 m (-) show NC gr 
 gsave  2268 1538 0 0 C 188.976 733.098 t 0 r /Helvetica findfont 71.6807 sf 0 0 m (10) show NC gr  367 846 m -27 X s 367 893 m -27 X s 367 926 m -27 X s 367 952 m -27 X s 367 973 m -27 X s 367 991 m -27 X s 367 1007 m -27 X s 367 1020 m -27 X s 395
 1033 m -55 X s
 gsave  2268 1538 0 0 C 293.239 1029.6 t 0 r /Helvetica findfont 48.8732 sf 0 0 m (2) show NC gr 
 gsave  2268 1538 0 0 C 267.173 1029.6 t 0 r /Symbol findfont 48.8732 sf 0 0 m (-) show NC gr 
 gsave  2268 1538 0 0 C 188.976 1000.27 t 0 r /Helvetica findfont 71.6807 sf 0 0 m (10) show NC gr  367 1113 m -27 X s 367 1160 m -27 X s 367 1194 m -27 X s 367 1220 m -27 X s 367 1241 m -27 X s 367 1259 m -27 X s 367 1274 m -27 X s 367 1288 m -27 X
 s 395 1300 m -55 X s
 gsave  2268 1538 0 0 C 299.756 1300.03 t 0 r /Helvetica findfont 48.8732 sf 0 0 m (1) show NC gr 
 gsave  2268 1538 0 0 C 273.69 1300.03 t 0 r /Symbol findfont 48.8732 sf 0 0 m (-) show NC gr 
 gsave  2268 1538 0 0 C 195.493 1270.7 t 0 r /Helvetica findfont 71.6807 sf 0 0 m (10) show NC gr  367 1381 m -27 X s 367 1428 m -27 X s 367 1461 m -27 X s 2154 231 m 1230 Y s 2100 231 m 54 X s 2127 311 m 27 X s 2127 358 m 27 X s 2127 392 m 27 X s
 2127 418 m 27 X s 2127 439 m 27 X s 2127 457 m 27 X s 2127 472 m 27 X s 2127 486 m 27 X s 2100 498 m 54 X s 2127 578 m 27 X s 2127 626 m 27 X s 2127 659 m 27 X s 2127 685 m 27 X s 2127 706 m 27 X s 2127 724 m 27 X s 2127 739 m 27 X s 2127 753 m 27 X
 s 2100 765 m 54 X s 2127 846 m 27 X s 2127 893 m 27 X s 2127 926 m 27 X s 2127 952 m 27 X s 2127 973 m 27 X s 2127 991 m 27 X s 2127 1007 m 27 X s 2127 1020 m 27 X s 2100 1033 m 54 X s 2127 1113 m 27 X s 2127 1160 m 27 X s 2127 1194 m 27 X s 2127
 1220 m 27 X s 2127 1241 m 27 X s 2127 1259 m 27 X s 2127 1274 m 27 X s 2127 1288 m 27 X s 2100 1300 m 54 X s 2127 1381 m 27 X s 2127 1428 m 27 X s 2127 1461 m 27 X s 1 0 0 c 6 lw 1 1 1 c black 1 0 0 c 340 231 m 484 X 650 Y 12 X 72 Y 12 X 61 Y 12 X
 42 Y 12 X 41 Y 12 X 23 Y 13 X 19 Y 12 X 11 Y 12 X 17 Y 12 X 6 Y 12 X 1 Y 12 X 9 Y 12 X -1 Y 12 X 1 Y 12 X -5 Y 12 X -7 Y 12 X 3 Y 13 X -4 Y 12 X -6 Y 12 X 1 Y 12 X -9 Y 12 X -12 Y 12 X -11 Y 12 X -11 Y 12 X 3 Y 12 X -9 Y 12 X -8 Y 12 X -10 Y 13 X -1
 Y 12 X -6 Y 12 X -13 Y 12 X -10 Y 12 X -4 Y 12 X -7 Y 12 X -9 Y 12 X -9 Y 12 X -25 Y 12 X 15 Y 13 X -3 Y 12 X -6 Y 12 X -16 Y 12 X -17 Y 24 X 4 Y 12 X -28 Y 12 X -2 Y 12 X -3 Y 12 X -7 Y 12 X 8 Y 13 X -13 Y 12 X -10 Y 12 X -22 Y 12 X -6 Y 12 X -6 Y
 12 X 21 Y 12 X -19 Y 12 X -12 Y 12 X 13 Y 12 X -14 Y 13 X -20 Y 12 X 16 Y 12 X 2 Y 12 X -21 Y 12 X -13 Y 12 X 11 Y 12 X -17 Y 12 X -14 Y 12 X -12 Y 12 X -48 Y 12 X 32 Y 13 X -36 Y 12 X 64 Y 12 X -4 Y 12 X -70 Y 12 X 26 Y 12 X -19 Y 12 X 31 Y 12 X
 -28 Y 12 X 22 Y 12 X -25 Y 12 X 7 Y 13 X -14 Y 12 X 14 Y 12 X -22 Y 12 X -32 Y 12 X -17 Y 12 X 36 Y 12 X -19 Y 12 X -5 Y 12 X 5 Y 12 X -11 Y 13 X -42 Y 12 X 16 Y 12 X 7 Y 12 X -74 Y 12 X 99 Y 12 X -99 Y 12 X 74 Y 12 X -74 Y 12 X 23 Y 12 X 44 Y 12 X
 37 Y 13 X -70 Y 24 X -11 Y 12 X 20 Y 24 X -31 Y 12 X 39 Y 12 X -64 Y 12 X 47 Y s black 3 lw 1 1 1 c 340 307 454 308 bf black
 gsave  2268 1538 0 0 C 537.605 518.056 t 0 r /Helvetica findfont 58.6478 sf 0 0 m (Data) show NC gr  0 0 1 c 6 lw 466 538 m 60 X s black
 gsave  2268 1538 0 0 C 537.605 361.662 t 0 r /Helvetica findfont 58.6478 sf 0 0 m (PYTHIA8) show NC gr  1 0 0 c 466 384 m 60 X s black
 gsave  2268 1538 0 0 C 430.084 1339.13 t 0 r /Helvetica-BoldOblique findfont 71.6807 sf 0 0 m (ATLAS) show NC gr 
 gsave  2268 1538 0 0 C 755.906 1339.13 t 0 r /Helvetica findfont 71.6807 sf 0 0 m (Internal) show NC gr 
 gsave  2268 1538 0 0 C 1166.44 1277.22 t 0 r /Helvetica findfont 48.8732 sf 0 0 m (\2551) show NC gr 
 gsave  2268 1538 0 0 C 615.802 1241.38 t 0 r /Helvetica findfont 71.6807 sf 0 0 m (=13 TeV, 15.8 pb) show NC gr 
 gsave  2268 1538 0 0 C 576.704 1241.38 t 0 r /Helvetica-Oblique findfont 71.6807 sf 0 0 m (s) show NC gr  551 1280 m 9 -42 d s 3 lw 560 1238 m 7 62 d s 567 1300 m 49 X s
 gsave  2268 1538 0 0 C 514.798 1241.38 t 0 r /Helvetica findfont 71.6807 sf 0 0 m ( ) show NC gr 
 gsave  2268 1538 0 0 C 430.084 1241.38 t 0 r /Helvetica-Oblique findfont 71.6807 sf 0 0 m (pp) show NC gr 
 gr  gr showpage
end
%%EOF
