%!PS-Adobe-2.0 EPSF-2.0
%%BoundingBox:  0 0 567 407
%%Title: figs/can_fits_cent70_80_PPperiph52_pta7_ptb49_ch2_deta01_DataXeXe_eff1_trig0.eps: can_fits_cent70_80_PPperiph52_pta7_ptb49_ch2_deta01
%%Creator: ROOT Version 6.16/00
%%CreationDate: Sat Nov  2 22:21:58 2019
%%DocumentNeededResources: ProcSet (FontSetInit)
%%EndComments
%%BeginProlog
80 dict begin
/s {stroke} def /l {lineto} def /m {moveto} def /t {translate} def
/r {rotate} def /rl {roll}  def /R {repeat} def
/d {rlineto} def /rm {rmoveto} def /gr {grestore} def /f {eofill} def
/c {setrgbcolor} def /black {0 setgray} def /sd {setdash} def
/cl {closepath} def /sf {scalefont setfont} def /lw {setlinewidth} def
/box {m dup 0 exch d exch 0 d 0 exch neg d cl} def
/NC{systemdict begin initclip end}def/C{NC box clip newpath}def
/bl {box s} def /bf {gsave box gsave f grestore 1 lw [] 0 sd s grestore} def /Y { 0 exch d} def /X { 0 d} def 
/K {{pop pop 0 moveto} exch kshow} bind def
/ita {/ang 15 def gsave [1 0 ang dup sin exch cos div 1 0 0] concat} def 
/mp {newpath /y exch def /x exch def} def
/side {[w .77 mul w .23 mul] .385 w mul sd w 0 l currentpoint t -144 r} def
/mr {mp x y w2 0 360 arc} def /m24 {mr s} def /m20 {mr f} def
/mb {mp x y w2 add m w2 neg 0 d 0 w neg d w 0 d 0 w d cl} def
/mt {mp x y w2 add m w2 neg w neg d w 0 d cl} def
/w4 {w 4 div} def
/w6 {w 6 div} def
/w8 {w 8 div} def
/m21 {mb f} def /m25 {mb s} def /m22 {mt f} def /m26{mt s} def
/m23 {mp x y w2 sub m w2 w d w neg 0 d cl f} def
/m27 {mp x y w2 add m w3 neg w2 neg d w3 w2 neg d w3 w2 d cl s} def
/m28 {mp x w2 sub y w2 sub w3 add m w3 0 d  0 w3 neg d w3 0 d 0 w3 d w3 0 d  0 w3 d w3 neg 0 d 0 w3 d w3 neg 0 d 0 w3 neg d w3 neg 0 d cl s } def
/m29 {mp gsave x w2 sub y w2 add w3 sub m currentpoint t 4 {side} repeat cl fill gr} def
/m30 {mp gsave x w2 sub y w2 add w3 sub m currentpoint t 4 {side} repeat cl s gr} def
/m31 {mp x y w2 sub m 0 w d x w2 sub y m w 0 d x w2 sub y w2 add m w w neg d x w2 sub y w2 sub m w w d s} def
/m32 {mp x y w2 sub m w2 w d w neg 0 d cl s} def
/m33 {mp x y w2 add m w3 neg w2 neg d w3 w2 neg d w3 w2 d cl f} def
/m34 {mp x w2 sub y w2 sub w3 add m w3 0 d  0 w3 neg d w3 0 d 0 w3 d w3 0 d  0 w3 d w3 neg 0 d 0 w3 d w3 neg 0 d 0 w3 neg d w3 neg 0 d cl f } def
/m35 {mp x y w2 add m w2 neg w2 neg d w2 w2 neg d w2 w2 d w2 neg w2 d x y w2 sub m 0 w d x w2 sub y m w 0 d s} def
/m36 {mb x w2 sub y w2 add m w w neg d x w2 sub y w2 sub m w w d s} def
/m37 {mp x y m w4 neg w2 d w4 neg w2 neg d w2 0 d  w4 neg w2 neg d w2 0 d w4 neg w2 d w2 0 d w4 neg w2 d w4 neg w2 neg d cl s} def
/m38 {mp x w4 sub y w2 add m w4 neg w4 neg d 0 w2 neg d w4 w4 neg d w2 0 d w4 w4 d 0 w2 d w4 neg w4 d w2 neg 0 d x y w2 sub m 0 w d x w2 sub y m w 0 d cl s} def
/m39 {mp x y m w4 neg w2 d w4 neg w2 neg d w2 0 d  w4 neg w2 neg d w2 0 d w4 neg w2 d w2 0 d w4 neg w2 d w4 neg w2 neg d cl f} def
/m40 {mp x y m w4 w2 d w4 w4 neg d w2 neg w4 neg d w2 w4 neg d w4 neg w4 neg d w4 neg w2 d w4 neg w2 neg d w4 neg w4 d w2 w4 d w2 neg w4 d w4 w4 d w4 w2 neg d cl s} def
/m41 {mp x y m w4 w2 d w4 w4 neg d w2 neg w4 neg d w2 w4 neg d w4 neg w4 neg d w4 neg w2 d w4 neg w2 neg d w4 neg w4 d w2 w4 d w2 neg w4 d w4 w4 d w4 w2 neg d cl f} def
/m42 {mp x y w2 add m w8 neg w2 -3 4 div mul d w2 -3 4 div mul w8 neg d w2 3 4 div mul w8 neg d w8 w2 -3 4 div mul d w8 w2 3 4 div mul d w2 3 4 div mul w8 d w2 -3 4 div mul w8 d w8 neg w2 3 4 div mul d cl s} def
/m43 {mp x y w2 add m w8 neg w2 -3 4 div mul d w2 -3 4 div mul w8 neg d w2 3 4 div mul w8 neg d w8 w2 -3 4 div mul d w8 w2 3 4 div mul d w2 3 4 div mul w8 d w2 -3 4 div mul w8 d w8 neg w2 3 4 div mul d cl f} def
/m44 {mp x y m w6 neg w2 d w2 2 3 div mul 0 d w6 neg w2 neg d w2 w6 d 0 w2 -2 3 div mul d w2 neg w6 d w6 w2 neg d w2 -2 3 div mul 0 d w6 w2 d w2 neg w6 neg d 0 w2 2 3 div mul d w2 w6 neg d cl s} def
/m45 {mp x y m w6 neg w2 d w2 2 3 div mul 0 d w6 neg w2 neg d w2 w6 d 0 w2 -2 3 div mul d w2 neg w6 d w6 w2 neg d w2 -2 3 div mul 0 d w6 w2 d w2 neg w6 neg d 0 w2 2 3 div mul d w2 w6 neg d cl f} def
/m46 {mp x y w4 add m w4 neg w4 d w4 neg w4 neg d  w4 w4 neg d w4 neg w4 neg d w4 w4 neg d w4 w4 d w4 w4 neg d w4 w4 d w4 neg w4 d w4 w4 d w4 neg w4 d w4 neg w4 neg d cl s} def
/m47 {mp x y w4 add m w4 neg w4 d w4 neg w4 neg d w4 w4 neg d w4 neg w4 neg d  w4 w4 neg d w4 w4 d w4 w4 neg d w4 w4 d w4 neg w4 d w4 w4 d w4 neg w4 d w4 neg w4 neg d cl f} def
/m48 {mp x y w4 add m w4 neg w4 d w4 neg w4 neg d w4 w4 neg d  w4 neg w4 neg d w4 w4 neg d w4 w4 d w4 w4 neg d w4 w4 d w4 neg w4 d w4 w4 d w4 neg w4 d w4 neg w4 neg d  w4 w4 neg d w4 neg w4 neg d w4 neg w4 d w4 w4 d cl f} def
/m49 {mp x w2 sub w3 add y w2 sub w3 add m  0 w3 neg d w3 0 d 0 w3 d w3 0 d 0 w3 d w3 neg 0 d 0 w3 d w3 neg 0 d 0 w3 neg d w3 neg 0 d 0 w3 neg d w3 0 d 0 w3 d w3 0 d 0 w3 neg d w3 neg 0 d cl f } def
/m2 {mp x y w2 sub m 0 w d x w2 sub y m w 0 d s} def
/m5 {mp x w2 sub y w2 sub m w w d x w2 sub y w2 add m w w neg d s} def
%%IncludeResource: ProcSet (FontSetInit)
%%IncludeResource: font Times-Roman
%%IncludeResource: font Times-Italic
%%IncludeResource: font Times-Bold
%%IncludeResource: font Times-BoldItalic
%%IncludeResource: font Helvetica
%%IncludeResource: font Helvetica-Oblique
%%IncludeResource: font Helvetica-Bold
%%IncludeResource: font Helvetica-BoldOblique
%%IncludeResource: font Courier
%%IncludeResource: font Courier-Oblique
%%IncludeResource: font Courier-Bold
%%IncludeResource: font Courier-BoldOblique
%%IncludeResource: font Symbol
%%IncludeResource: font ZapfDingbats
/reEncode {exch findfont dup length dict begin {1 index /FID eq  {pop pop} {def} ifelse } forall /Encoding exch def currentdict end dup /FontName get exch definefont pop } def [/Times-Bold /Times-Italic /Times-BoldItalic /Helvetica /Helvetica-Oblique
 /Helvetica-Bold /Helvetica-BoldOblique /Courier /Courier-Oblique /Courier-Bold /Courier-BoldOblique /Times-Roman /AvantGarde-Book /AvantGarde-BookOblique /AvantGarde-Demi /AvantGarde-DemiOblique /Bookman-Demi /Bookman-DemiItalic /Bookman-Light
 /Bookman-LightItalic /Helvetica-Narrow /Helvetica-Narrow-Bold /Helvetica-Narrow-BoldOblique /Helvetica-Narrow-Oblique /NewCenturySchlbk-Roman /NewCenturySchlbk-Bold /NewCenturySchlbk-BoldItalic /NewCenturySchlbk-Italic /Palatino-Bold
 /Palatino-BoldItalic /Palatino-Italic /Palatino-Roman ] {ISOLatin1Encoding reEncode } forall
%%EndProlog
%%BeginSetup
%%EndSetup
newpath  gsave  .25 .25 scale  gsave  0 0 t black[  ] 0 sd 3 lw 1 1 1 c 2268 1630 0 0 bf black 1 1 1 c 1882 1401 340 196 bf black 1882 1401 340 196 bl 1 1 1 c black 340 430 m 15 X s 378 430 m 14 X s /w 23 def /w2 {w 2 div} def /w3 {w 3 div} def 366
 430 m20 392 424 m 15 X s 430 424 m 15 X s 419 424 m20 445 435 m 14 X s 482 435 m 15 X s 471 435 m20 497 471 m 15 X s 535 471 m 14 X s 523 471 m20 549 509 m 15 X s 587 509 m 15 X s 575 509 m20 602 554 m 14 X s 639 554 m 15 X s 628 554 m20 654 605 m
 15 X s 691 605 m 15 X s 680 605 m20 706 642 m 15 X s 744 642 m 14 X s 732 642 m20 758 658 m 15 X s 796 658 m 15 X s 785 658 m20 811 658 m 14 X s 848 658 m 15 X s 837 658 m20 863 642 m 15 X s 901 642 m 14 X s 889 642 m20 915 605 m 15 X s 953 605 m 15
 X s 941 605 m20 968 554 m 14 X s 1005 554 m 15 X s 994 554 m20 1020 509 m 15 X s 1057 509 m 15 X s 1046 509 m20 1072 471 m 15 X s 1110 471 m 14 X s 1098 471 m20 1124 435 m 15 X s 1162 435 m 15 X s 1151 435 m20 1177 424 m 14 X s 1214 424 m 15 X s
 1203 424 m20 1229 430 m 15 X s 1267 430 m 14 X s 1255 430 m20 1281 453 m 15 X s 1319 453 m 15 X s 1307 453 m20 1334 496 m 14 X s 1371 496 m 15 X s 1360 496 m20 1386 553 m 15 X s 1423 553 m 15 X s 1412 553 m20 1438 619 m 15 X s 1476 619 m 14 X s 1464
 619 m20 1490 690 m 15 X s 1528 690 m 15 X s 1517 690 m20 1543 759 m 14 X s 1580 759 m 15 X s 1569 759 m20 1595 820 m 15 X s 1632 820 m 15 X s 1621 820 m20 1647 867 m 15 X s 1685 867 m 15 X s 1673 867 m20 1700 892 m 14 X s 1737 892 m 15 X s 1726 892
 m20 1752 892 m 15 X s 1789 892 m 15 X s 1778 892 m20 1804 867 m 15 X s 1842 867 m 14 X s 1830 867 m20 1856 820 m 15 X s 1894 820 m 15 X s 1883 820 m20 1909 759 m 14 X s 1946 759 m 15 X s 1935 759 m20 1961 690 m 15 X s 1998 690 m 15 X s 1987 690 m20
 2013 619 m 15 X s 2051 619 m 15 X s 2039 619 m20 2066 553 m 14 X s 2103 553 m 15 X s 2092 553 m20 2118 496 m 15 X s 2155 496 m 15 X s 2144 496 m20 2170 453 m 15 X s 2208 453 m 14 X s 2196 453 m20 340 196 m 1882 X s 511 236 m -40 Y s 571 216 m -20 Y
 s 631 216 m -20 Y s 691 216 m -20 Y s 751 216 m -20 Y s 811 236 m -40 Y s 871 216 m -20 Y s 931 216 m -20 Y s 990 216 m -20 Y s 1050 216 m -20 Y s 1110 236 m -40 Y s 1170 216 m -20 Y s 1230 216 m -20 Y s 1290 216 m -20 Y s 1350 216 m -20 Y s 1410
 236 m -40 Y s 1470 216 m -20 Y s 1530 216 m -20 Y s 1590 216 m -20 Y s 1649 216 m -20 Y s 1709 236 m -40 Y s 1769 216 m -20 Y s 1829 216 m -20 Y s 1889 216 m -20 Y s 1949 216 m -20 Y s 2009 236 m -40 Y s 511 236 m -40 Y s 451 216 m -20 Y s 391 216 m
 -20 Y s 2009 236 m -40 Y s 2069 216 m -20 Y s 2129 216 m -20 Y s 2189 216 m -20 Y s
 gsave  2268 1630 0 0 C 512.8 136.747 t 0 r /Helvetica findfont 59.8267 sf 0 0 m (1) show NC gr 
 gsave  2268 1630 0 0 C 481.462 136.747 t 0 r /Symbol findfont 59.8267 sf 0 0 m (-) show NC gr 
 gsave  2268 1630 0 0 C 791.991 136.747 t 0 r /Helvetica findfont 59.8267 sf 0 0 m (0) show NC gr 
 gsave  2268 1630 0 0 C 1096.82 136.747 t 0 r /Helvetica findfont 59.8267 sf 0 0 m (1) show NC gr 
 gsave  2268 1630 0 0 C 1390.26 136.747 t 0 r /Helvetica findfont 59.8267 sf 0 0 m (2) show NC gr 
 gsave  2268 1630 0 0 C 1692.24 136.747 t 0 r /Helvetica findfont 59.8267 sf 0 0 m (3) show NC gr 
 gsave  2268 1630 0 0 C 1991.37 136.747 t 0 r /Helvetica findfont 59.8267 sf 0 0 m (4) show NC gr 
 gsave  2268 1630 0 0 C 2182.25 45.5822 t 0 r /Symbol findfont 76.92 sf 0 0 m (f) show NC gr 
 gsave  2268 1630 0 0 C 2133.82 45.5822 t 0 r /Symbol findfont 76.92 sf 0 0 m (D) show NC gr  340 1597 m 1882 X s 511 1556 m 41 Y s 571 1577 m 20 Y s 631 1577 m 20 Y s 691 1577 m 20 Y s 751 1577 m 20 Y s 811 1556 m 41 Y s 871 1577 m 20 Y s 931 1577 m
 20 Y s 990 1577 m 20 Y s 1050 1577 m 20 Y s 1110 1556 m 41 Y s 1170 1577 m 20 Y s 1230 1577 m 20 Y s 1290 1577 m 20 Y s 1350 1577 m 20 Y s 1410 1556 m 41 Y s 1470 1577 m 20 Y s 1530 1577 m 20 Y s 1590 1577 m 20 Y s 1649 1577 m 20 Y s 1709 1556 m 41
 Y s 1769 1577 m 20 Y s 1829 1577 m 20 Y s 1889 1577 m 20 Y s 1949 1577 m 20 Y s 2009 1556 m 41 Y s 511 1556 m 41 Y s 451 1577 m 20 Y s 391 1577 m 20 Y s 2009 1556 m 41 Y s 2069 1577 m 20 Y s 2129 1577 m 20 Y s 2189 1577 m 20 Y s 340 196 m 1401 Y s
 399 246 m -59 X s 369 291 m -29 X s 369 336 m -29 X s 369 381 m -29 X s 399 425 m -59 X s 369 470 m -29 X s 369 515 m -29 X s 369 560 m -29 X s 399 604 m -59 X s 369 649 m -29 X s 369 694 m -29 X s 369 738 m -29 X s 399 783 m -59 X s 369 828 m -29 X
 s 369 873 m -29 X s 369 917 m -29 X s 399 962 m -59 X s 369 1007 m -29 X s 369 1052 m -29 X s 369 1096 m -29 X s 399 1141 m -59 X s 369 1186 m -29 X s 369 1231 m -29 X s 369 1275 m -29 X s 399 1320 m -59 X s 369 1365 m -29 X s 369 1410 m -29 X s 369
 1454 m -29 X s 399 1499 m -59 X s 399 246 m -59 X s 369 202 m -29 X s 399 1499 m -59 X s 369 1544 m -29 X s 369 1588 m -29 X s
 gsave  2268 1630 0 0 C 202.271 225.062 t 0 r /Helvetica findfont 59.8267 sf 0 0 m (0.96) show NC gr 
 gsave  2268 1630 0 0 C 202.271 404.542 t 0 r /Helvetica findfont 59.8267 sf 0 0 m (0.98) show NC gr 
 gsave  2268 1630 0 0 C 202.271 584.022 t 0 r /Helvetica findfont 59.8267 sf 0 0 m (1.00) show NC gr 
 gsave  2268 1630 0 0 C 202.271 760.654 t 0 r /Helvetica findfont 59.8267 sf 0 0 m (1.02) show NC gr 
 gsave  2268 1630 0 0 C 199.422 940.134 t 0 r /Helvetica findfont 59.8267 sf 0 0 m (1.04) show NC gr 
 gsave  2268 1630 0 0 C 202.271 1119.61 t 0 r /Helvetica findfont 59.8267 sf 0 0 m (1.06) show NC gr 
 gsave  2268 1630 0 0 C 202.271 1299.09 t 0 r /Helvetica findfont 59.8267 sf 0 0 m (1.08) show NC gr 
 gsave  2268 1630 0 0 C 202.271 1478.57 t 0 r /Helvetica findfont 59.8267 sf 0 0 m (1.10) show NC gr 
 gsave  2268 1630 0 0 C 142.445 1578.29 t 90 r /Helvetica findfont 76.92 sf 0 0 m (\)) show NC gr 
 gsave  2268 1630 0 0 C 142.445 1538.4 t 90 r /Symbol findfont 76.92 sf 0 0 m (f) show NC gr 
 gsave  2268 1630 0 0 C 142.445 1489.97 t 90 r /Symbol findfont 76.92 sf 0 0 m (D) show NC gr 
 gsave  2268 1630 0 0 C 142.445 1410.2 t 90 r /Helvetica findfont 76.92 sf 0 0 m (C\() show NC gr  2222 196 m 1401 Y s 2164 246 m 58 X s 2193 291 m 29 X s 2193 336 m 29 X s 2193 381 m 29 X s 2164 425 m 58 X s 2193 470 m 29 X s 2193 515 m 29 X s 2193
 560 m 29 X s 2164 604 m 58 X s 2193 649 m 29 X s 2193 694 m 29 X s 2193 738 m 29 X s 2164 783 m 58 X s 2193 828 m 29 X s 2193 873 m 29 X s 2193 917 m 29 X s 2164 962 m 58 X s 2193 1007 m 29 X s 2193 1052 m 29 X s 2193 1096 m 29 X s 2164 1141 m 58 X
 s 2193 1186 m 29 X s 2193 1231 m 29 X s 2193 1275 m 29 X s 2164 1320 m 58 X s 2193 1365 m 29 X s 2193 1410 m 29 X s 2193 1454 m 29 X s 2164 1499 m 58 X s 2164 246 m 58 X s 2193 202 m 29 X s 2164 1499 m 58 X s 2193 1544 m 29 X s 2193 1588 m 29 X s 1
 1 1 c black 340 575 m 15 X s 378 575 m 14 X s 366 575 m24 392 558 m 15 X s 430 558 m 15 X s 419 558 m24 445 542 m 14 X s 482 542 m 15 X s 471 542 m24 497 529 m 15 X s 535 529 m 14 X s 523 529 m24 549 521 m 15 X s 587 521 m 15 X s 575 521 m24 602 511
 m 14 X s 639 511 m 15 X s 628 511 m24 654 506 m 15 X s 691 506 m 15 X s 680 506 m24 706 502 m 15 X s 744 502 m 14 X s 732 502 m24 758 500 m 15 X s 796 500 m 15 X s 785 500 m24 811 500 m 14 X s 848 500 m 15 X s 837 500 m24 863 502 m 15 X s 901 502 m
 14 X s 889 502 m24 915 506 m 15 X s 953 506 m 15 X s 941 506 m24 968 511 m 14 X s 1005 511 m 15 X s 994 511 m24 1020 521 m 15 X s 1057 521 m 15 X s 1046 521 m24 1072 529 m 15 X s 1110 529 m 14 X s 1098 529 m24 1124 542 m 15 X s 1162 542 m 15 X s
 1151 542 m24 1177 558 m 14 X s 1214 558 m 15 X s 1203 558 m24 1229 575 m 15 X s 1267 575 m 14 X s 1255 575 m24 1281 596 m 15 X s 1319 596 m 15 X s 1307 596 m24 1334 618 m 14 X s 1371 618 m 15 X s 1360 618 m24 1386 640 m 15 X s 1423 640 m 15 X s 1412
 640 m24 1438 666 m 15 X s 1476 666 m 14 X s 1464 666 m24 1490 688 m 15 X s 1528 688 m 15 X s 1517 688 m24 1543 709 m 14 X s 1580 709 m 15 X s 1569 709 m24 1595 727 m 15 X s 1632 727 m 15 X s 1621 727 m24 1647 741 m 15 X s 1685 741 m 15 X s 1673 741
 m24 1700 748 m 14 X s 1737 748 m 15 X s 1726 748 m24 1752 748 m 15 X s 1789 748 m 15 X s 1778 748 m24 1804 741 m 15 X s 1842 741 m 14 X s 1830 741 m24 1856 727 m 15 X s 1894 727 m 15 X s 1883 727 m24 1909 709 m 14 X s 1946 709 m 15 X s 1935 709 m24
 1961 688 m 15 X s 1998 688 m 15 X s 1987 688 m24 2013 666 m 15 X s 2051 666 m 15 X s 2039 666 m24 2066 640 m 14 X s 2103 640 m 15 X s 2092 640 m24 2118 618 m 15 X s 2155 618 m 15 X s 2144 618 m24 2170 596 m 15 X s 2208 596 m 14 X s 2196 596 m24 1 0
 0 c 6 lw 1 1 1 c 1 0 0 c 340 429 m 52 X -5 Y 53 X 12 Y 52 X 31 Y 52 X 44 Y 53 X 46 Y 52 X 47 Y 52 X 36 Y 52 X 19 Y 105 X -19 Y 52 X -36 Y 53 X -47 Y 52 X -46 Y 52 X -44 Y 52 X -31 Y 53 X -12 Y 52 X 5 Y 52 X 25 Y 53 X 42 Y 52 X 55 Y 52 X 68 Y 52 X 71
 Y 53 X 69 Y 52 X 62 Y 52 X 46 Y 53 X 24 Y 104 X -24 Y 52 X -46 Y 53 X -62 Y 52 X -69 Y 52 X -71 Y 53 X -68 Y 52 X -55 Y 52 X -42 Y 52 X s 1 0.6 0.2 c[ 80 20] 0 sd 0.95 0.95 0.95 c black 1 0.6 0.2 c 350 500 m 922 X s 1272 500 m 922 X s 2194 500 m 19
 X s 0 0 1 c[ 20 20] 0 sd 0.95 0.95 0.95 c black 0 0 1 c 350 353 m 18 1 d 19 3 d 19 5 d 19 7 d 19 9 d 19 11 d 18 13 d 19 15 d 19 17 d 19 17 d 19 19 d 18 20 d 19 20 d 19 20 d 19 20 d 19 20 d 19 18 d 18 17 d 19 15 d 19 13 d 19 11 d 19 9 d 18 6 d 19 3 d
 19 X 19 -3 d 19 -6 d 19 -9 d 18 -11 d 19 -13 d 19 -15 d 19 -17 d 19 -18 d 19 -20 d 18 -20 d 19 -20 d 19 -20 d 19 -20 d 19 -19 d 18 -17 d 19 -17 d 19 -15 d 19 -13 d 19 -11 d 19 -9 d 18 -7 d 19 -5 d 19 -3 d 19 -1 d s 1272 353 m 19 2 d 18 4 d 19 5 d 19
 8 d 19 9 d 19 11 d 19 13 d 18 13 d 19 15 d 19 16 d 19 17 d 19 18 d 19 17 d 18 18 d 19 17 d 19 18 d 19 16 d 19 15 d 18 14 d 19 13 d 19 11 d 19 9 d 19 7 d 19 4 d 18 3 d 19 X 19 -3 d 19 -4 d 19 -7 d 19 -9 d 18 -11 d 19 -13 d 19 -14 d 19 -15 d 19 -16 d
 18 -18 d 19 -17 d 19 -18 d 19 -17 d 19 -18 d 19 -17 d 18 -16 d 19 -15 d 19 -13 d 19 -13 d 19 -11 d 18 -9 d 19 -8 d 19 -5 d s 2194 359 m 19 -4 d s black
 gsave  2268 1630 0 0 C 430.182 1492.82 t 0 r /Helvetica-BoldOblique findfont 68.3734 sf 0 0 m (ATLAS) show NC gr 
 gsave  2268 1630 0 0 C 1324.73 1427.29 t 0 r /Helvetica findfont 45.5822 sf 0 0 m (\2551) show NC gr 
 gsave  2268 1630 0 0 C 1287.7 1395.96 t 0 r /Helvetica findfont 68.3734 sf 0 0 m (b) show NC gr 
 gsave  2268 1630 0 0 C 1247.81 1395.96 t 0 r /Symbol findfont 68.3734 sf 0 0 m (m) show NC gr 
 gsave  2268 1630 0 0 C 794.84 1395.96 t 0 r /Helvetica findfont 68.3734 sf 0 0 m ( = 5.44 TeV, 3 ) show NC gr 
 gsave  2268 1630 0 0 C 732.165 1373.17 t 0 r /Helvetica findfont 45.5822 sf 0 0 m (NN) show NC gr 
 gsave  2268 1630 0 0 C 695.129 1395.96 t 0 r /Helvetica-Oblique findfont 68.3734 sf 0 0 m (s) show NC gr [  ] 0 sd 667 1433 m 8 -60 d s 3 lw 675 1373 m 12 80 d s 687 1453 m 108 X s
 gsave  2268 1630 0 0 C 430.182 1395.96 t 0 r /Helvetica findfont 68.3734 sf 0 0 m (Xe+Xe ) show NC gr 
 gsave  2268 1630 0 0 C 601.116 1296.24 t 0 r /Helvetica findfont 68.3734 sf 0 0 m (|<5) show NC gr 
 gsave  2268 1630 0 0 C 564.08 1296.24 t 0 r /Symbol findfont 68.3734 sf 0 0 m (h) show NC gr 
 gsave  2268 1630 0 0 C 521.347 1296.24 t 0 r /Symbol findfont 68.3734 sf 0 0 m (D) show NC gr 
 gsave  2268 1630 0 0 C 430.182 1296.24 t 0 r /Helvetica findfont 68.3734 sf 0 0 m (2<|) show NC gr 
 gsave  2268 1630 0 0 C 1082.58 1296.24 t 0 r /Helvetica findfont 68.3734 sf 0 0 m (\(GeV\)<5) show NC gr 
 gsave  2268 1630 0 0 C 1054.09 1327.58 t 0 r /Helvetica-Oblique findfont 45.5822 sf 0 0 m (b) show NC gr 
 gsave  2268 1630 0 0 C 1042.69 1327.58 t 0 r /Helvetica findfont 45.5822 sf 0 0 m (,) show NC gr 
 gsave  2268 1630 0 0 C 1014.2 1327.58 t 0 r /Helvetica-Oblique findfont 45.5822 sf 0 0 m (a) show NC gr 
 gsave  2268 1630 0 0 C 1014.2 1259.21 t 0 r /Helvetica findfont 45.5822 sf 0 0 m (T) show NC gr 
 gsave  2268 1630 0 0 C 971.472 1296.24 t 0 r /Helvetica-Oblique findfont 68.3734 sf 0 0 m (p) show NC gr 
 gsave  2268 1630 0 0 C 837.574 1296.24 t 0 r /Helvetica findfont 68.3734 sf 0 0 m (0.5<) show NC gr 
 gsave  2268 1630 0 0 C 1811.89 1467.18 t 0 r /Helvetica-Bold findfont 74.0711 sf 0 0 m (70\25580%) show NC gr 
 gr  gr showpage
end
%%EOF
